{
  "id": 200890914,
  "head_commit_sha": "7e5952fe4028205fd51a6a67de4ee1f222c4143f",
  "base_commit_sha": "182e1dbbf64ead9d3af81f378b0645fe3f2de60b",
  "start_commit_sha": "3463fc961e0b4885c6f1b278c7265fd33191622d",
  "created_at": "2021-06-15T13:59:25.384Z",
  "merge_request_id": 104244626,
  "state": "collected",
  "real_size": "1",
  "patch_id_sha": null,
  "commits": [
    {
      "id": "7e5952fe4028205fd51a6a67de4ee1f222c4143f",
      "short_id": "7e5952fe",
      "created_at": "2021-06-15T13:52:25.000Z",
      "parent_ids": [],
      "title": "i40e: Fix parameters in aq_get_phy_register()",
      "message": "i40e: Fix parameters in aq_get_phy_register()\n\nBugzilla: https://bugzilla.redhat.com/1967100\nY-Commit: d2d278c324db64c76ef7e77469c79437412232b0\n\nO-Bugzilla: https://bugzilla.redhat.com/1907852\nUpstream Status: kernel/git/davem/net-next.git\nConflicts: none\n\ncommit b2d0efc4be7ed320e33eaa9b6dd6f3f6011ffb8e\nAuthor: Grzegorz Siwik <grzegorz.siwik@intel.com>\nDate:   Wed Mar 24 09:58:27 2021 +0100\n\n    i40e: Fix parameters in aq_get_phy_register()\n\n    Change parameters order in aq_get_phy_register() due to wrong\n    statistics in PHY reported by ethtool. Previously all PHY statistics were\n    exactly the same for all interfaces\n    Now statistics are reported correctly - different for different interfaces\n\n    Fixes: 0514db37dd78 (\"i40e: Extend PHY access with page change flag\")\n    Signed-off-by: Grzegorz Siwik <grzegorz.siwik@intel.com>\n    Tested-by: Dave Switzer <david.switzer@intel.com>\n    Signed-off-by: Tony Nguyen <anthony.l.nguyen@intel.com>\n\nSigned-off-by: Stefan Assmann <sassmann@redhat.com>\nSigned-off-by: Patrick Talbert <ptalbert@redhat.com>\n",
      "author_name": "Stefan Assmann",
      "author_email": "sassmann@redhat.com",
      "authored_date": "2021-04-15T07:09:29.000Z",
      "committer_name": "Patrick Talbert",
      "committer_email": "ptalbert@redhat.com",
      "committed_date": "2021-06-15T13:52:25.000Z",
      "trailers": {},
      "extended_trailers": {},
      "web_url": "https://gitlab.com/redhat/rhel/src/kernel/rhel-8-sandbox/-/commit/7e5952fe4028205fd51a6a67de4ee1f222c4143f"
    }
  ],
  "diffs": [
    {
      "diff": "@@ -5223,7 +5223,7 @@ static int i40e_get_module_eeprom(struct net_device *netdev,\n \n \t\tstatus = i40e_aq_get_phy_register(hw,\n \t\t\t\tI40E_AQ_PHY_REG_ACCESS_EXTERNAL_MODULE,\n-\t\t\t\ttrue, addr, offset, &value, NULL);\n+\t\t\t\taddr, true, offset, &value, NULL);\n \t\tif (status)\n \t\t\treturn -EIO;\n \t\tdata[i] = value;\n",
      "new_path": "drivers/net/ethernet/intel/i40e/i40e_ethtool.c",
      "old_path": "drivers/net/ethernet/intel/i40e/i40e_ethtool.c",
      "a_mode": "100644",
      "b_mode": "100644",
      "new_file": false,
      "renamed_file": false,
      "deleted_file": false,
      "generated_file": null
    }
  ]
}
