[
  {
    "id": 211187326,
    "head_commit_sha": "7e5952fe4028205fd51a6a67de4ee1f222c4143f",
    "base_commit_sha": "182e1dbbf64ead9d3af81f378b0645fe3f2de60b",
    "start_commit_sha": "a6feef4f320d3242870693944be54d6b79a72c27",
    "created_at": "2021-07-06T17:27:46.607Z",
    "merge_request_id": 104244626,
    "state": "collected",
    "real_size": "1",
    "patch_id_sha": "471a4b4d22973a915a9a40f1ad216ec844c801d4"
  },
  {
    "id": 200890914,
    "head_commit_sha": "7e5952fe4028205fd51a6a67de4ee1f222c4143f",
    "base_commit_sha": "182e1dbbf64ead9d3af81f378b0645fe3f2de60b",
    "start_commit_sha": "3463fc961e0b4885c6f1b278c7265fd33191622d",
    "created_at": "2021-06-15T13:59:25.384Z",
    "merge_request_id": 104244626,
    "state": "collected",
    "real_size": "1",
    "patch_id_sha": null
  }
]
