{
  "id": 228770482,
  "iid": 777,
  "project_id": 20363472,
  "title": "Draft: HID: logitech-hidpp: Retry commands when device is busy",
  "description": "This is a dummy merge request, please ignore it. There's an upstream Fixes: patch for the patch included in this MR, and I'm testing some things w/fixes detection and such.\n\nOmitted-fix: 7c28afd5512e371773dbb2bf95a31ed5625651d9  \nTesting, testing.  \n\nOmitted-fix: 6199d23c91ce53bfed455f09a8c5ed170d516824  \n\nSigned-off-by: Jarod Wilson <jarod@redhat.com>",
  "state": "opened",
  "created_at": "2023-06-06T19:18:02.550Z",
  "updated_at": "2024-07-18T10:48:26.675Z",
  "merged_by": null,
  "merge_user": null,
  "merged_at": null,
  "closed_by": null,
  "closed_at": null,
  "target_branch": "main",
  "source_branch": "fixes-testing",
  "user_notes_count": 10,
  "upvotes": 0,
  "downvotes": 0,
  "author": {
    "id": 6616462,
    "username": "jwilsonrh",
    "name": "Jarod Wilson",
    "state": "active",
    "locked": false,
    "avatar_url": "https://gitlab.com/uploads/-/system/user/avatar/6616462/avatar.png",
    "web_url": "https://gitlab.com/jwilsonrh"
  },
  "assignees": [],
  "assignee": null,
  "reviewers": [],
  "source_project_id": 23124132,
  "target_project_id": 20363472,
  "labels": [
    "CKI::Failed",
    "CKI_RHEL::Failed::build",
    "CKI_RT::Warning",
    "CommitRefs::OK",
    "Dependencies::OK",
    "Fixes::OK",
    "JIRA::Missing",
    "Merge::OK",
    "Signoff::OK",
    "Subsystem:hid"
  ],
  "draft": true,
  "imported": false,
  "imported_from": "none",
  "work_in_progress": true,
  "milestone": {
    "id": 3251461,
    "iid": 36,
    "group_id": 10810393,
    "title": "RHEL-8.10.0",
    "description": "Red Hat Enterprise Linux 8, release 8.10.0",
    "state": "active",
    "created_at": "2023-08-29T14:08:46.930Z",
    "updated_at": "2023-08-29T14:08:46.930Z",
    "due_date": null,
    "start_date": null,
    "expired": false,
    "web_url": "https://gitlab.com/groups/redhat/rhel/src/kernel/-/milestones/36"
  },
  "merge_when_pipeline_succeeds": false,
  "merge_status": "can_be_merged",
  "detailed_merge_status": "not_approved",
  "sha": "5c2295d082fe72a9096c6e90ba5df2471cc835d8",
  "merge_commit_sha": null,
  "squash_commit_sha": null,
  "discussion_locked": null,
  "should_remove_source_branch": null,
  "force_remove_source_branch": true,
  "prepared_at": "2023-06-06T19:18:12.227Z",
  "allow_collaboration": false,
  "allow_maintainer_to_push": false,
  "reference": "!777",
  "references": {
    "short": "!777",
    "relative": "!777",
    "full": "redhat/rhel/src/kernel/rhel-8-sandbox!777"
  },
  "web_url": "https://gitlab.com/redhat/rhel/src/kernel/rhel-8-sandbox/-/merge_requests/777",
  "time_stats": {
    "time_estimate": 0,
    "total_time_spent": 0,
    "human_time_estimate": null,
    "human_total_time_spent": null
  },
  "squash": false,
  "squash_on_merge": false,
  "task_completion_status": {
    "count": 0,
    "completed_count": 0
  },
  "has_conflicts": false,
  "blocking_discussions_resolved": true,
  "approvals_before_merge": null,
  "subscribed": true,
  "changes_count": "1",
  "latest_build_started_at": "2023-06-06T19:18:11.387Z",
  "latest_build_finished_at": null,
  "first_deployed_to_production_at": null,
  "pipeline": {
    "id": 891430473,
    "iid": 1140,
    "project_id": 20363472,
    "sha": "5dd74bf4a446bcb6f102a52a6ae51e9c124d9d94",
    "ref": "refs/merge-requests/777/merge",
    "status": "failed",
    "source": "merge_request_event",
    "created_at": "2023-06-06T19:18:10.303Z",
    "updated_at": "2024-02-12T11:08:53.792Z",
    "web_url": "https://gitlab.com/redhat/rhel/src/kernel/rhel-8-sandbox/-/pipelines/891430473"
  },
  "head_pipeline": {
    "id": 891430473,
    "iid": 1140,
    "project_id": 20363472,
    "sha": "5dd74bf4a446bcb6f102a52a6ae51e9c124d9d94",
    "ref": "refs/merge-requests/777/merge",
    "status": "failed",
    "source": "merge_request_event",
    "created_at": "2023-06-06T19:18:10.303Z",
    "updated_at": "2024-02-12T11:08:53.792Z",
    "web_url": "https://gitlab.com/redhat/rhel/src/kernel/rhel-8-sandbox/-/pipelines/891430473",
    "before_sha": "5dd74bf4a446bcb6f102a52a6ae51e9c124d9d94",
    "tag": false,
    "yaml_errors": null,
    "user": {
      "id": 6616462,
      "username": "jwilsonrh",
      "name": "Jarod Wilson",
      "state": "active",
      "locked": false,
      "avatar_url": "https://gitlab.com/uploads/-/system/user/avatar/6616462/avatar.png",
      "web_url": "https://gitlab.com/jwilsonrh"
    },
    "started_at": "2023-06-06T19:18:11.387Z",
    "finished_at": "2024-02-12T11:08:53.767Z",
    "committed_at": null,
    "duration": 4502,
    "queued_duration": 1,
    "coverage": null,
    "detailed_status": {
      "icon": "status_failed",
      "text": "Failed",
      "label": "failed",
      "group": "failed",
      "tooltip": "failed",
      "has_details": true,
      "details_path": "/redhat/rhel/src/kernel/rhel-8-sandbox/-/pipelines/891430473",
      "illustration": null,
      "favicon": "/assets/ci_favicons/favicon_status_failed-41304d7f7e3828808b0c26771f0309e55296819a9beea3ea9fbf6689d9857c12.png"
    }
  },
  "diff_refs": {
    "base_sha": "a1aa513bcf7e6ca061f1213e54d05b062be6477c",
    "head_sha": "5c2295d082fe72a9096c6e90ba5df2471cc835d8",
    "start_sha": "d4c19529263a7886d059a62f09b5e3af16560570"
  },
  "merge_error": null,
  "first_contribution": false,
  "user": {
    "can_merge": true
  }
}
