{
  "data": {
    "project": {
      "mr": {
        "commits": {
          "pageInfo": {
            "hasNextPage": false,
            "endCursor": "MQ"
          },
          "nodes": [
            {
              "author": {
                "gid": "gid://gitlab/User/6616462",
                "name": "Jarod Wilson",
                "email": "jarod@redhat.com",
                "username": "jwilsonrh"
              },
              "authorEmail": "jarod@redhat.com",
              "authorName": "Jarod Wilson",
              "authoredDate": "2023-06-06T15:15:45-04:00",
              "committerEmail": "jarod@redhat.com",
              "committerName": "Jarod Wilson",
              "description": "\ncommit 586e8fede7953b1695b5ccc6112eff9b052e79ac\nAuthor: Bastien Nocera <hadess@hadess.net>\nDate:   Thu Feb 9 16:49:15 2023 +0100\n\n    HID: logitech-hidpp: Retry commands when device is busy\n\n    Handle the busy error coming from the device or receiver. The\n    documentation says a busy error can be returned when:\n    \"\n    Device (or receiver) cannot answer immediately to this request\n    for any reason i.e:\n    - already processing a request from the same or another SW\n    - pipe full\n    \"\n\n    Signed-off-by: Bastien Nocera <hadess@hadess.net>\n    Link: https://lore.kernel.org/r/20230209154916.462158-1-hadess@hadess.net\n    Signed-off-by: Benjamin Tissoires <benjamin.tissoires@redhat.com>\n\nSigned-off-by: Jarod Wilson <jarod@redhat.com>",
              "sha": "5c2295d082fe72a9096c6e90ba5df2471cc835d8",
              "title": "HID: logitech-hidpp: Retry commands when device is busy"
            }
          ]
        }
      }
    }
  }
}
