{
  "data": {
    "project": {
      "branchRules": {
        "nodes": [
          {
            "name": "All branches",
            "approvalRules": {
              "nodes": [
                {
                  "approvalsRequired": 3,
                  "id": "gid://gitlab/ApprovalProjectRule/649022",
                  "name": "All Members",
                  "type": "ANY_APPROVER",
                  "eligibleApprovers": {
                    "nodes": []
                  }
                }
              ]
            }
          },
          {
            "name": "All protected branches",
            "approvalRules": {
              "nodes": [
                {
                  "approvalsRequired": 1,
                  "id": "gid://gitlab/ApprovalProjectRule/44781616",
                  "name": "Bot: readyForMerge",
                  "type": "REGULAR",
                  "eligibleApprovers": {
                    "nodes": [
                      {
                        "gid": "gid://gitlab/User/8143989",
                        "name": "CKI KWF Bot",
                        "email": "",
                        "username": "cki-kwf-bot"
                      }
                    ]
                  }
                }
              ]
            }
          },
          {
            "name": "8.0",
            "approvalRules": {
              "nodes": []
            }
          },
          {
            "name": "8.1",
            "approvalRules": {
              "nodes": []
            }
          },
          {
            "name": "8.10",
            "approvalRules": {
              "nodes": []
            }
          },
          {
            "name": "8.10-rt",
            "approvalRules": {
              "nodes": []
            }
          },
          {
            "name": "8.2",
            "approvalRules": {
              "nodes": []
            }
          },
          {
            "name": "8.2-rt",
            "approvalRules": {
              "nodes": []
            }
          },
          {
            "name": "8.3",
            "approvalRules": {
              "nodes": []
            }
          },
          {
            "name": "8.3-rt",
            "approvalRules": {
              "nodes": []
            }
          },
          {
            "name": "8.4",
            "approvalRules": {
              "nodes": []
            }
          },
          {
            "name": "8.4-rt",
            "approvalRules": {
              "nodes": []
            }
          },
          {
            "name": "8.5",
            "approvalRules": {
              "nodes": []
            }
          },
          {
            "name": "8.5-rt",
            "approvalRules": {
              "nodes": []
            }
          },
          {
            "name": "8.6",
            "approvalRules": {
              "nodes": []
            }
          },
          {
            "name": "8.6-rt",
            "approvalRules": {
              "nodes": []
            }
          },
          {
            "name": "8.7",
            "approvalRules": {
              "nodes": []
            }
          },
          {
            "name": "8.7-rt",
            "approvalRules": {
              "nodes": []
            }
          },
          {
            "name": "8.8",
            "approvalRules": {
              "nodes": []
            }
          },
          {
            "name": "8.8-rt",
            "approvalRules": {
              "nodes": []
            }
          },
          {
            "name": "8.9",
            "approvalRules": {
              "nodes": []
            }
          },
          {
            "name": "8.9-rt",
            "approvalRules": {
              "nodes": []
            }
          },
          {
            "name": "main",
            "approvalRules": {
              "nodes": []
            }
          },
          {
            "name": "main-rt",
            "approvalRules": {
              "nodes": []
            }
          }
        ]
      },
      "mr": {
        "approvedBy": {
          "nodes": [
            {
              "gid": "gid://gitlab/User/8176954",
              "name": "Ivan Vecera",
              "email": "ivecera@redhat.com",
              "username": "ivecera"
            },
            {
              "gid": "gid://gitlab/User/6616462",
              "name": "Jarod Wilson",
              "email": "jarod@redhat.com",
              "username": "jwilsonrh"
            }
          ]
        },
        "approvalState": {
          "rules": [
            {
              "approvalsRequired": 3,
              "id": "gid://gitlab/ApprovalMergeRequestRule/33924311",
              "name": "All Members",
              "type": "ANY_APPROVER",
              "eligibleApprovers": [],
              "sourceRule": {
                "approvalsRequired": 3,
                "id": "gid://gitlab/ApprovalProjectRule/649022",
                "name": "All Members",
                "type": "ANY_APPROVER",
                "eligibleApprovers": []
              }
            },
            {
              "approvalsRequired": 0,
              "id": "gid://gitlab/ApprovalMergeRequestRule/47524332",
              "name": "my special rule",
              "type": "REGULAR",
              "eligibleApprovers": [
                {
                  "gid": "gid://gitlab/User/998176954",
                  "name": "Shadow Man",
                  "email": "shadowman@redhat.com",
                  "username": "shadowman"
                }
              ],
              "sourceRule": []
            },
            {
              "approvalsRequired": 0,
              "id": "gid://gitlab/ApprovalMergeRequestRule/47524332",
              "name": "i40e",
              "type": "REGULAR",
              "eligibleApprovers": [
                {
                  "gid": "gid://gitlab/User/8176954",
                  "name": "Ivan Vecera",
                  "email": "ivecera@redhat.com",
                  "username": "ivecera"
                }
              ],
              "sourceRule": []
            },
            {
              "approvalsRequired": 0,
              "id": "gid://gitlab/ApprovalMergeRequestRule/71282057",
              "name": "nic_rdma",
              "type": "REGULAR",
              "eligibleApprovers": [
                {
                  "gid": "gid://gitlab/User/11307321",
                  "name": "Izabela Bakollari",
                  "email": "ibakolla@redhat.com",
                  "username": "ibakolla"
                },
                {
                  "gid": "gid://gitlab/User/7993432",
                  "name": "Michal Schmidt",
                  "email": "mschmidt@redhat.com",
                  "username": "mschmidt2"
                },
                {
                  "gid": "gid://gitlab/User/8167974",
                  "name": "Ken Cox",
                  "email": "jkc@redhat.com",
                  "username": "kencox"
                },
                {
                  "gid": "gid://gitlab/User/8637363",
                  "name": "Íñigo Huguet",
                  "email": "ihuguet@redhat.com",
                  "username": "ihuguet-rh"
                },
                {
                  "gid": "gid://gitlab/User/10152048",
                  "name": "José Ignacio Tornos Martínez",
                  "email": "jtornosm@redhat.com",
                  "username": "jtornosm"
                },
                {
                  "gid": "gid://gitlab/User/8166085",
                  "name": "Corinna Vinschen",
                  "email": "vinschen@redhat.com",
                  "username": "vinschen"
                },
                {
                  "gid": "gid://gitlab/User/5920156",
                  "name": "Kamal Heib",
                  "email": "kheib@redhat.com",
                  "username": "kheib"
                },
                {
                  "gid": "gid://gitlab/User/8176954",
                  "name": "Ivan Vecera",
                  "email": "ivecera@redhat.com",
                  "username": "ivecera"
                },
                {
                  "gid": "gid://gitlab/User/8068760",
                  "name": "Petr Oros",
                  "email": "poros@redhat.com",
                  "username": "poros2"
                }
              ],
              "sourceRule": []
            },
            {
              "approvalsRequired": 1,
              "id": "gid://gitlab/ApprovalMergeRequestRule/168250774",
              "name": "ethernet",
              "type": "REGULAR",
              "eligibleApprovers": [
                {
                  "gid": "gid://gitlab/User/7993432",
                  "name": "Michal Schmidt",
                  "email": "mschmidt@redhat.com",
                  "username": "mschmidt2"
                },
                {
                  "gid": "gid://gitlab/User/6616462",
                  "name": "Jarod Wilson",
                  "email": "jarod@redhat.com",
                  "username": "jwilsonrh"
                },
                {
                  "gid": "gid://gitlab/User/8176954",
                  "name": "Ivan Vecera",
                  "email": "ivecera@redhat.com",
                  "username": "ivecera"
                }
              ],
              "sourceRule": []
            }
          ]
        }
      }
    }
  }
}
