{
  "data": {
    "project": {
      "mr": {
        "approved": true,
        "author": {
          "gid": "gid://gitlab/User/5991344",
          "name": "Patrick Talbert",
          "email": "ptalbert@redhat.com",
          "username": "ptalbert"
        },
        "commitCount": 1,
        "description": "Instead of having dnf install commands as part of the daily scheduled\njobs, bake the necessary packages into the image used by the job.\n\nIn cki-project/cki-tools!1301 we add the necessary bits to the cki-tools\nimage so now we can use that image and drop the dnf commands from the CI\ndefinition.\n\nFixes: #159\n\nSigned-off-by: Patrick Talbert <ptalbert@redhat.com>",
        "global_id": "gid://gitlab/MergeRequest/310519672",
        "labels": {
          "pageInfo": {
            "hasNextPage": false,
            "endCursor": "NQ"
          },
          "nodes": [
            {
              "title": "Acks::OK"
            },
            {
              "title": "CKI::OK"
            },
            {
              "title": "Merge::OK"
            },
            {
              "title": "readyForMerge"
            }
          ]
        },
        "state": "opened",
        "draft": false,
        "files": [
          {
            "path": ".gitlab-ci.yml"
          }
        ],
        "preparedAt": "2024-06-24T15:17:50Z",
        "sourceBranch": "job_image",
        "targetBranch": "os-build",
        "title": "[redhat] gitlab-ci: Use cki-tools builder image for scheduled jobs",
        "headPipeline": {
          "id": "gid://gitlab/Ci::Pipeline/1345634080"
        },
        "project": {
          "id": "gid://gitlab/Project/13604247"
        }
      }
    }
  }
}
