{
  "data": {
    "group": [],
    "project": {
      "projectMembers": {
        "nodes": [
          {
            "user": {
              "gid": "gid://gitlab/User/6637121",
              "name": "User One",
              "email": "user1@redhat.com",
              "username": "user1"
            }
          },
          {
            "user": {
              "gid": "gid://gitlab/User/6637121",
              "name": "User Two",
              "email": "user2@redhat.com",
              "username": "user2"
            }
          },
          {
            "user": {
              "gid": "gid://gitlab/User/6637121",
              "name": "Shadow Man",
              "email": "shadowman@redhat.com",
              "username": "shadowman"
            }
          },
          {
            "user": {
              "gid": "gid://gitlab/User/6637121",
              "name": "Benjamin Tissoires",
              "email": "benjamin.tissoires@redhat.com",
              "username": "btissoir"
            }
          }
        ]
      }
    }
  }
}
