{
  "data": {
    "project": {
      "mr": {
        "commits": {
          "pageInfo": {
            "hasNextPage": false,
            "endCursor": "Mg"
          },
          "nodes": [
            {
              "author": {
                "gid": "gid://gitlab/User/5991344",
                "name": "Patrick Talbert",
                "email": "ptalbert@redhat.com",
                "username": "ptalbert"
              },
              "authorEmail": "ptalbert@redhat.com",
              "authorName": "Patrick Talbert",
              "authoredDate": "2024-07-25T10:41:47+02:00",
              "committerEmail": "ptalbert@redhat.com",
              "committerName": "Patrick Talbert",
              "description": "\nJIRA: https://issues.redhat.com/browse/RHEL-50203\nCVE: CVE-2024-41091\nUpstream Status: Posted https://lore.kernel.org/r/20240724170452.16837-3-dongli.zhang@oracle.com/\n\nAuthor: Dongli Zhang <dongli.zhang@oracle.com>\nDate:   Wed Jul 24 10:04:52 2024 -0700\n\n    tun: add missing verification for short frame\n\n    The cited commit missed to check against the validity of the frame length\n    in the tun_xdp_one() path, which could cause a corrupted skb to be sent\n    downstack. Even before the skb is transmitted, the\n    tun_xdp_one-->eth_type_trans() may access the Ethernet header although it\n    can be less than ETH_HLEN. Once transmitted, this could either cause\n    out-of-bound access beyond the actual length, or confuse the underlayer\n    with incorrect or inconsistent header length in the skb metadata.\n\n    In the alternative path, tun_get_user() already prohibits short frame which\n    has the length less than Ethernet header size from being transmitted for\n    IFF_TAP.\n\n    This is to drop any frame shorter than the Ethernet header size just like\n    how tun_get_user() does.\n\n    CVE: CVE-2024-41091\n    Inspired-by: https://lore.kernel.org/netdev/1717026141-25716-1-git-send-email-si-wei.liu@oracle.com/\n    Fixes: 043d222f93ab (\"tuntap: accept an array of XDP buffs through sendmsg()\")\n    Cc: Si-Wei Liu <si-wei.liu@oracle.com>\n    Cc: stable@vger.kernel.org\n    Signed-off-by: Dongli Zhang <dongli.zhang@oracle.com>\n    Reviewed-by: Si-Wei Liu <si-wei.liu@oracle.com>\n    Reviewed-by: Willem de Bruijn <willemb@google.com>\n    Reviewed-by: Paolo Abeni <pabeni@redhat.com>\n    Reviewed-by: Jason Wang <jasowang@redhat.com>\n\nSigned-off-by: Patrick Talbert <ptalbert@redhat.com>",
              "sha": "fcfad23917cee945fce060cc16d9a49ca9a13b45",
              "title": "tun: add missing verification for short frame"
            },
            {
              "author": {
                "gid": "gid://gitlab/User/5991344",
                "name": "Patrick Talbert",
                "email": "ptalbert@redhat.com",
                "username": "ptalbert"
              },
              "authorEmail": "ptalbert@redhat.com",
              "authorName": "Patrick Talbert",
              "authoredDate": "2024-07-25T10:41:08+02:00",
              "committerEmail": "ptalbert@redhat.com",
              "committerName": "Patrick Talbert",
              "description": "\nJIRA: https://issues.redhat.com/browse/RHEL-50265\nCVE: CVE-2024-41090\nUpstream Status: Posted https://lore.kernel.org/all/20240724170452.16837-2-dongli.zhang@oracle.com/\n\nAuthor: Si-Wei Liu <si-wei.liu@oracle.com>\nDate:   Wed Jul 24 10:04:51 2024 -0700\n\n    tap: add missing verification for short frame\n\n    The cited commit missed to check against the validity of the frame length\n    in the tap_get_user_xdp() path, which could cause a corrupted skb to be\n    sent downstack. Even before the skb is transmitted, the\n    tap_get_user_xdp()-->skb_set_network_header() may assume the size is more\n    than ETH_HLEN. Once transmitted, this could either cause out-of-bound\n    access beyond the actual length, or confuse the underlayer with incorrect\n    or inconsistent header length in the skb metadata.\n\n    In the alternative path, tap_get_user() already prohibits short frame which\n    has the length less than Ethernet header size from being transmitted.\n\n    This is to drop any frame shorter than the Ethernet header size just like\n    how tap_get_user() does.\n\n    CVE: CVE-2024-41090\n    Link: https://lore.kernel.org/netdev/1717026141-25716-1-git-send-email-si-wei.liu@oracle.com/\n    Fixes: 0efac27791ee (\"tap: accept an array of XDP buffs through sendmsg()\")\n    Cc: stable@vger.kernel.org\n    Signed-off-by: Si-Wei Liu <si-wei.liu@oracle.com>\n    Signed-off-by: Dongli Zhang <dongli.zhang@oracle.com>\n    Reviewed-by: Willem de Bruijn <willemb@google.com>\n    Reviewed-by: Paolo Abeni <pabeni@redhat.com>\n    Reviewed-by: Jason Wang <jasowang@redhat.com>\n\nSigned-off-by: Patrick Talbert <ptalbert@redhat.com>",
              "sha": "ac01049d618df06b79e7b184ffd11c419ed531c7",
              "title": "tap: add missing verification for short frame"
            }
          ]
        }
      }
    }
  }
}
