{
  "data": {
    "project": {
      "mr": {
        "id": "gid://gitlab/MergeRequest/311172819",
        "notes": {
          "pageInfo": {
            "endCursor": "eyJjcmVhdGVkX2F0IjoiMjAyNC0wNi0yNiAxOToyNzoxNS43OTA0MzQwMDAgKzAwMDAiLCJpZCI6IjE5Njk0OTA2MjYifQ",
            "hasNextPage": false
          },
          "nodes": [
            {
              "author": {
                "gid": "gid://gitlab/User/8143989",
                "name": "CKI KWF Bot",
                "email": "",
                "username": "cki-kwf-bot"
              },
              "body": "**JIRA Hook Readiness Report**\n\nTarget Branch: main  \n\nThis merge request **fails** jirahook validation: ~\"JIRA::Planning\"  \n\n##### JIRA Issue tags:  \n|JIRA Issue|CVEs|Commits|Readiness|Policy Check|Notes|\n|:------|:------|:------|:------|:------|:------|\n|[RHEL-45195](https://issues.redhat.com/browse/RHEL-45195) (PLANNING)|None|2555d5ddfb6f92c4d62e8a7ec43a23b2850fab8c|PLANNING|Passed|See 1<br>See 2|\n1. The JIRA Issue associated with these commits does not have an Internal Target Milestone set. Talk to your QE counterpart to get it set.  \n2. The JIRA Issue associated with these commits has not passed preverification at this time.  \n\n\n\n\nGuidelines for these entries can be found in CommitRules: https://red.ht/kwf_commit_rules.  \nTo request re-evalution either remove the JIRA label from the MR or add a comment with only the text: request-jirahook-evaluation.\n\n---\n\n<small>Updated 2024-06-26 16:09 UTC by jirahook - [KWF FAQ](https://red.ht/kernel_workflow_doc) - [Slack #team-kernel-workflow](https://redhat-internal.slack.com/archives/C04LRUPMJQ5) - [Source](https://gitlab.com/cki-project/kernel-workflow/-/blob/main/webhook/jirahook.py) - [Documentation](https://gitlab.com/cki-project/kernel-workflow/-/blob/main/docs/README.jirahook.md) - [Report an issue](https://gitlab.com/cki-project/kernel-workflow/-/issues/new?issue%5Btitle%5D=jirahook%20webhook%20issue)</small>",
              "id": "gid://gitlab/Note/1969002433",
              "createdAt": "2024-06-26T15:10:10Z",
              "updatedAt": "2024-06-26T16:09:37Z",
              "url": "https://gitlab.com/redhat/centos-stream/src/kernel/centos-stream-9/-/merge_requests/4612#note_1969002433"
            },
            {
              "author": {
                "gid": "gid://gitlab/User/8143989",
                "name": "CKI KWF Bot",
                "email": "",
                "username": "cki-kwf-bot"
              },
              "body": "**Fixes Status:** ~\"Fixes::OK\"\nNo missing upstream fixes for MR 4612 found at this time.\n\n\n---\n\n<small>Created 2024-06-26 15:10 UTC by fixes - [KWF FAQ](https://red.ht/kernel_workflow_doc) - [Slack #team-kernel-workflow](https://redhat-internal.slack.com/archives/C04LRUPMJQ5) - [Source](https://gitlab.com/cki-project/kernel-workflow/-/blob/main/webhook/fixes.py) - [Documentation](https://gitlab.com/cki-project/kernel-workflow/-/blob/main/docs/README.fixes.md) - [Report an issue](https://gitlab.com/cki-project/kernel-workflow/-/issues/new?issue%5Btitle%5D=fixes%20webhook%20issue)</small>",
              "id": "gid://gitlab/Note/1969002496",
              "createdAt": "2024-06-26T15:10:11Z",
              "updatedAt": "2024-06-26T15:10:11Z",
              "url": "https://gitlab.com/redhat/centos-stream/src/kernel/centos-stream-9/-/merge_requests/4612#note_1969002496"
            },
            {
              "author": {
                "gid": "gid://gitlab/User/8143989",
                "name": "CKI KWF Bot",
                "email": "",
                "username": "cki-kwf-bot"
              },
              "body": "**DCO Signoff Check Report** ~\"Signoff::OK\"\n\nThe DCO Signoff Check for all commits and the MR description has **PASSED**.\n\n\n\n---\n\n<small>Created 2024-06-26 15:10 UTC by signoff - [KWF FAQ](https://red.ht/kernel_workflow_doc) - [Slack #team-kernel-workflow](https://redhat-internal.slack.com/archives/C04LRUPMJQ5) - [Source](https://gitlab.com/cki-project/kernel-workflow/-/blob/main/webhook/signoff.py) - [Documentation](https://gitlab.com/cki-project/kernel-workflow/-/blob/main/docs/README.signoff.md) - [Report an issue](https://gitlab.com/cki-project/kernel-workflow/-/issues/new?issue%5Btitle%5D=signoff%20webhook%20issue)</small>",
              "id": "gid://gitlab/Note/1969002499",
              "createdAt": "2024-06-26T15:10:11Z",
              "updatedAt": "2024-06-26T15:10:11Z",
              "url": "https://gitlab.com/redhat/centos-stream/src/kernel/centos-stream-9/-/merge_requests/4612#note_1969002499"
            },
            {
              "author": {
                "gid": "gid://gitlab/User/8143989",
                "name": "CKI KWF Bot",
                "email": "",
                "username": "cki-kwf-bot"
              },
              "body": "Affected subsystem(s): mm\n\nRequesting review of subsystem mm with 1 required approval(s) from user(s) @example_user2, @example_user3\n\n\n\n---\n\n<small>Created 2024-06-26 15:10 UTC by ack_nack - [KWF FAQ](https://red.ht/kernel_workflow_doc) - [Slack #team-kernel-workflow](https://redhat-internal.slack.com/archives/C04LRUPMJQ5) - [Source](https://gitlab.com/cki-project/kernel-workflow/-/blob/main/webhook/ack_nack.py) - [Documentation](https://gitlab.com/cki-project/kernel-workflow/-/blob/main/docs/README.ack_nack.md) - [Report an issue](https://gitlab.com/cki-project/kernel-workflow/-/issues/new?issue%5Btitle%5D=ack_nack%20webhook%20issue)</small>",
              "id": "gid://gitlab/Note/1969002803",
              "createdAt": "2024-06-26T15:10:18Z",
              "updatedAt": "2024-06-26T15:10:18Z",
              "url": "https://gitlab.com/redhat/centos-stream/src/kernel/centos-stream-9/-/merge_requests/4612#note_1969002803"
            },
            {
              "author": {
                "gid": "gid://gitlab/User/8143989",
                "name": "CKI KWF Bot",
                "email": "",
                "username": "cki-kwf-bot"
              },
              "body": "**ACK/NACK Summary:** ~\"Acks::Blocked\"\n\nApproved by:\n - Some Person (example_user2)\n\nSatisfied Approvals:  \n - Approval Rule \"mm\" already has 1 ACK(s) (1 required).  \n\nAll discussions must be resolved.\n\n---\n\n<small>Updated 2024-06-26 19:27 UTC by ack_nack - [KWF FAQ](https://red.ht/kernel_workflow_doc) - [Slack #team-kernel-workflow](https://redhat-internal.slack.com/archives/C04LRUPMJQ5) - [Source](https://gitlab.com/cki-project/kernel-workflow/-/blob/main/webhook/ack_nack.py) - [Documentation](https://gitlab.com/cki-project/kernel-workflow/-/blob/main/docs/README.ack_nack.md) - [Report an issue](https://gitlab.com/cki-project/kernel-workflow/-/issues/new?issue%5Btitle%5D=ack_nack%20webhook%20issue)</small>",
              "id": "gid://gitlab/Note/1969003150",
              "createdAt": "2024-06-26T15:10:25Z",
              "updatedAt": "2024-06-26T19:27:23Z",
              "url": "https://gitlab.com/redhat/centos-stream/src/kernel/centos-stream-9/-/merge_requests/4612#note_1969003150"
            },
            {
              "author": {
                "gid": "gid://gitlab/User/8143989",
                "name": "CKI KWF Bot",
                "email": "",
                "username": "cki-kwf-bot"
              },
              "body": "<br>\n\n**Upstream Config Differences**: ~\"Config::ARK::OK\"\n\n@example_user, this warning does not imply that your CONFIG change values are incorrect, but further review may be necessary. You can resolve this thread if you feel your changes are correct for both ARK and RHEL. If you see that you have changes to make (for example, you may have to update your RHEL MR, or you may have to make further changes in ARK) please make them and then resolve this thread.\n\n- A CONFIG change in RHEL commit 2555d5ddfb6f92c4d62e8a7ec43a23b2850fab8c (`CONFIG_DEFAULT_MMAP_MIN_ADDR=65536`) does not match ARK, no matching common or rhel config file found.  \n\n\n\n---\n\n<small>Created 2024-06-26 15:10 UTC by commit_compare - [KWF FAQ](https://red.ht/kernel_workflow_doc) - [Slack #team-kernel-workflow](https://redhat-internal.slack.com/archives/C04LRUPMJQ5) - [Source](https://gitlab.com/cki-project/kernel-workflow/-/blob/main/webhook/commit_compare.py) - [Documentation](https://gitlab.com/cki-project/kernel-workflow/-/blob/main/docs/README.commit_compare.md) - [Report an issue](https://gitlab.com/cki-project/kernel-workflow/-/issues/new?issue%5Btitle%5D=commit_compare%20webhook%20issue)</small>",
              "id": "gid://gitlab/Note/1969003498",
              "createdAt": "2024-06-26T15:10:34Z",
              "updatedAt": "2024-06-26T15:10:34Z",
              "url": "https://gitlab.com/redhat/centos-stream/src/kernel/centos-stream-9/-/merge_requests/4612#note_1969003498"
            },
            {
              "author": {
                "gid": "gid://gitlab/User/8143989",
                "name": "CKI KWF Bot",
                "email": "",
                "username": "cki-kwf-bot"
              },
              "body": "<br>\n\n**Upstream Commit ID Readiness Report**: ~\"CommitRefs::OK\"\n\nThis report indicates how backported commits compare to the upstream source commit.  Matching (or not matching) is not a guarantee of correctness.  KABI, missing or un-backportable dependencies, or existing RHEL differences against upstream may lead to a difference in commits. As always, care should be taken in the review to ensure code correctness.\n|P num   |Sub CID |UCIDs   |Match     |Notes   |\n|:-------|:-------|:-------|:---------|:-------|\n|1|2555d5ddfb6f92c4d62e8a7ec43a23b2850fab8c||Config    |See 1|\n1. A CONFIG change was detected and does not match ARK.\n\n\n\nTotal number of commits analyzed: **1**<br>* Please note and evaluate differences from upstream in the table.  \n\nMerge Request **passes** commit ID validation, references all present.  \n\n\n---\n\n<small>Created 2024-06-26 15:10 UTC by commit_compare - [KWF FAQ](https://red.ht/kernel_workflow_doc) - [Slack #team-kernel-workflow](https://redhat-internal.slack.com/archives/C04LRUPMJQ5) - [Source](https://gitlab.com/cki-project/kernel-workflow/-/blob/main/webhook/commit_compare.py) - [Documentation](https://gitlab.com/cki-project/kernel-workflow/-/blob/main/docs/README.commit_compare.md) - [Report an issue](https://gitlab.com/cki-project/kernel-workflow/-/issues/new?issue%5Btitle%5D=commit_compare%20webhook%20issue)</small>",
              "id": "gid://gitlab/Note/1969003984",
              "createdAt": "2024-06-26T15:10:44Z",
              "updatedAt": "2024-06-26T15:10:44Z",
              "url": "https://gitlab.com/redhat/centos-stream/src/kernel/centos-stream-9/-/merge_requests/4612#note_1969003984"
            },
            {
              "author": {
                "gid": "gid://gitlab/User/8143989",
                "name": "CKI KWF Bot",
                "email": "",
                "username": "cki-kwf-bot"
              },
              "body": "**Mergeability Summary:** ~\"Merge::OK\"\n\nThis MR can be merged cleanly to its target branch.\n\n---\n\n<small>Created 2024-06-26 15:14 UTC by mergehook - [KWF FAQ](https://red.ht/kernel_workflow_doc) - [Slack #team-kernel-workflow](https://redhat-internal.slack.com/archives/C04LRUPMJQ5) - [Source](https://gitlab.com/cki-project/kernel-workflow/-/blob/main/webhook/mergehook.py) - [Documentation](https://gitlab.com/cki-project/kernel-workflow/-/blob/main/docs/README.mergehook.md) - [Report an issue](https://gitlab.com/cki-project/kernel-workflow/-/issues/new?issue%5Btitle%5D=mergehook%20webhook%20issue)</small>",
              "id": "gid://gitlab/Note/1969015876",
              "createdAt": "2024-06-26T15:14:56Z",
              "updatedAt": "2024-06-26T15:14:56Z",
              "url": "https://gitlab.com/redhat/centos-stream/src/kernel/centos-stream-9/-/merge_requests/4612#note_1969015876"
            },
            {
              "author": {
                "gid": "gid://gitlab/User/8143989",
                "name": "CKI KWF Bot",
                "email": "",
                "username": "cki-kwf-bot"
              },
              "body": "**CKI Pipelines Status:** ~\"CKI::Running\"  \n  \n#### Blocking pipelines  \n  \n##### Running pipelines  \nThese pipelines are still running.  \n  \n- ~\"CKI_CentOS::Running\" [c9s_merge_request](https://gitlab.com/redhat/red-hat-ci-tools/kernel/cki-internal-pipelines/cki-trusted-contributors/-/pipelines/1349236504)  \n- ~\"CKI_RT::Running\" [c9s_rt_merge_request](https://gitlab.com/redhat/red-hat-ci-tools/kernel/cki-internal-pipelines/cki-trusted-contributors/-/pipelines/1349236482)  \n- ~\"CKI_64k::Running\" [c9s_64k_merge_request](https://gitlab.com/redhat/red-hat-ci-tools/kernel/cki-internal-pipelines/cki-trusted-contributors/-/pipelines/1349236596)  \n  \n##### Successful pipelines  \nThese pipelines have been completed successfully or have been waived.  \n  \n- ~\"CKI_RHEL::OK\" [c9s_rhel9_compat_merge_request](https://gitlab.com/redhat/red-hat-ci-tools/kernel/cki-internal-pipelines/cki-internal-contributors/-/pipelines/1349236384) was successful.  \n  \n#### Non-blocking pipelines  \n  \n##### Running pipelines  \nThese pipelines are still running.  \n  \n- ~\"CKI_Automotive::Running\" [c9s_automotive_check_merge_request](https://gitlab.com/redhat/red-hat-ci-tools/kernel/cki-internal-pipelines/cki-trusted-contributors/-/pipelines/1349236626)  \n\n---\n\n<small>Updated 2024-06-26 18:30 UTC by ckihook - [CKI FAQ](https://cki-project.org/l/devel-faq) - [Slack #team-kernel-cki](https://redhat-internal.slack.com/archives/C04KPCFGDTN) - [Source](https://gitlab.com/cki-project/kernel-workflow/-/blob/main/webhook/ckihook.py) - [Documentation](https://gitlab.com/cki-project/kernel-workflow/-/blob/main/docs/README.ckihook.md) - [Report an issue](https://gitlab.com/cki-project/infrastructure/-/issues/new?issue%5Btitle%5D=ckihook%20webhook%20issue)</small>",
              "id": "gid://gitlab/Note/1969209422",
              "createdAt": "2024-06-26T16:51:55Z",
              "updatedAt": "2024-06-26T18:30:30Z",
              "url": "https://gitlab.com/redhat/centos-stream/src/kernel/centos-stream-9/-/merge_requests/4612#note_1969209422"
            },
            {
              "author": {
                "gid": "gid://gitlab/User/8143989",
                "name": "CKI KWF Bot",
                "email": "",
                "username": "cki-kwf-bot"
              },
              "body": "*ERROR*: MR has no \"All Members\" approval rule",
              "id": "gid://gitlab/DiscussionNote/1969490626",
              "createdAt": "2024-06-26T19:27:15Z",
              "updatedAt": "2024-06-26T19:27:15Z",
              "url": "https://gitlab.com/redhat/centos-stream/src/kernel/centos-stream-9/-/merge_requests/4612#note_1969490626"
            },
            {
              "author": {
                "gid": "gid://gitlab/User/8143989",
                "name": "CKI KWF Bot",
                "email": "",
                "username": "cki-kwf-bot"
              },
              "body": "**Kernel Configuration Evaluation:** ~\"Configs::OK\"\n\nThis MR can be merged cleanly to its target branch.\n\n---\n\n<small>Created 2024-06-26 15:14 UTC by mergehook - [KWF FAQ](https://red.ht/kernel_workflow_doc) - [Slack #team-kernel-workflow](https://redhat-internal.slack.com/archives/C04LRUPMJQ5) - [Source](https://gitlab.com/cki-project/kernel-workflow/-/blob/main/webhook/mergehook.py) - [Documentation](https://gitlab.com/cki-project/kernel-workflow/-/blob/main/docs/README.mergehook.md) - [Report an issue](https://gitlab.com/cki-project/kernel-workflow/-/issues/new?issue%5Btitle%5D=mergehook%20webhook%20issue)</small>",
              "id": "gid://gitlab/Note/1979015876",
              "createdAt": "2024-06-26T15:14:56Z",
              "updatedAt": "2024-06-26T15:14:56Z",
              "url": "https://gitlab.com/redhat/centos-stream/src/kernel/centos-stream-9/-/merge_requests/4612#note_1969015876"
            }
          ]
        }
      }
    }
  }
}
