{
  "data": {
    "project": {
      "mr": {
        "approved": false,
        "author": {
          "gid": "gid://gitlab/User/8262039",
          "name": "Donald Dutile",
          "email": "ddutile@redhat.com",
          "username": "ddutile"
        },
        "commitCount": 4,
        "description": "JIRA: https://issues.redhat.com/browse/RHEL-36542\nJIRA: https://issues.redhat.com/browse/RHEL-36543\nJIRA: https://issues.redhat.com/browse/RHEL-36544\n\nAdding kernel pieces for VFIO-PCI variant module for NVIDIA's Grace GPU.\nThis module is used for vgpu on Grace-Hopper, and eventually, Grace-Blackwell.\n\nThe four commits enable the assignment to a guest.\nTo test, NVIDIA is providing a qemu-kvm invocation that will pass the VFIO-PCI device to the variant driver in the guest.  \nThis is basic vfio-pci device passthrough enablement, and requires further SMMUv3 updates to make the functionality complete and performant.\n\nThe four commits backport upstream commits listed in RHEL-36542, -36543, & -36544 which were not included in the kvm: arm: part-1 backport series (by Sebastian Ott).\n\nThe (first) push will initially be marked as Draft, until NVIDIA provides a method for RH-QE to test the ability to assign a vfio-pci variant device to a guest. Once that's been verified by this author, this MR's draft status will be removed, and the rest of the kernel workflow can continue.\n\nPushing this series now so eyes can see it, and others who want to grab it for testing or additional patch additions can do so.\n\nUpdate: (July 19, 2024)\nPulling-out of draft mode: Verified via modified qemu-kvm command line and added instructions in RHEL-19393 (from the non-RHEL qemu-system-aarch64 cmdline), since QE now can test/verify basic assignment functionality.\n\nSigned-off-by: Donald Dutile <ddutile@redhat.com>",
        "global_id": "gid://gitlab/MergeRequest/315869159",
        "labels": {
          "pageInfo": {
            "hasNextPage": false,
            "endCursor": "MTE"
          },
          "nodes": [
            {
              "title": "Acks::OK"
            },
            {
              "title": "CKI::OK"
            },
            {
              "title": "CommitRefs::Missing"
            },
            {
              "title": "Configuration"
            },
            {
              "title": "Configs::OK"
            },
            {
              "title": "Dependencies::OK"
            },
            {
              "title": "ExternalCI::OK"
            },
            {
              "title": "Fixes::OK"
            },
            {
              "title": "JIRA::Planning"
            },
            {
              "title": "Merge::OK"
            },
            {
              "title": "Signoff::OK"
            },
            {
              "title": "Subsystem:vfio"
            }
          ]
        },
        "state": "opened",
        "draft": false,
        "files": [
          {
            "path": "MAINTAINERS"
          },
          {
            "path": "drivers/vfio/pci/Kconfig"
          },
          {
            "path": "drivers/vfio/pci/Makefile"
          },
          {
            "path": "drivers/vfio/pci/nvgrace-gpu/Kconfig"
          },
          {
            "path": "drivers/vfio/pci/nvgrace-gpu/Makefile"
          },
          {
            "path": "drivers/vfio/pci/nvgrace-gpu/main.c"
          },
          {
            "path": "drivers/vfio/pci/vfio_pci_core.c"
          },
          {
            "path": "redhat/configs/common/generic/arm/aarch64/CONFIG_NVGRACE_GPU_VFIO_PCI"
          }
        ],
        "preparedAt": "2024-07-18T01:34:01Z",
        "sourceBranch": "j36542",
        "targetBranch": "main",
        "title": "vfio/nvgrace-gpu: Add vfio pci variant module for grace hopper",
        "headPipeline": {
          "id": "gid://gitlab/Ci::Pipeline/1378079863"
        },
        "project": {
          "id": "gid://gitlab/Project/24152864"
        }
      }
    }
  }
}
