{
  "allowFailure": false,
  "id": "gid://gitlab/Ci::Bridge/8468251859",
  "name": "c9s_rt_merge_request",
  "createdAt": "2024-11-26T00:18:24Z",
  "pipeline": {
    "id": "gid://gitlab/Ci::Pipeline/1560072246"
  },
  "status": "SUCCESS",
  "downstreamPipeline": {
    "id": "gid://gitlab/Ci::Pipeline/1560072291",
    "project": {
      "id": "gid://gitlab/Project/18194050",
      "fullPath": "redhat/red-hat-ci-tools/kernel/cki-internal-pipelines/cki-trusted-contributors"
    },
    "status": "SUCCESS",
    "stages": {
      "nodes": [
        {
          "name": "prepare",
          "jobs": {
            "nodes": [
              {
                "status": "SUCCESS"
              },
              {
                "status": "SUCCESS"
              }
            ]
          }
        },
        {
          "name": "merge",
          "jobs": {
            "nodes": [
              {
                "status": "SUCCESS"
              }
            ]
          }
        },
        {
          "name": "build",
          "jobs": {
            "nodes": [
              {
                "status": "SUCCESS"
              },
              {
                "status": "SUCCESS"
              },
              {
                "status": "SUCCESS"
              }
            ]
          }
        },
        {
          "name": "publish",
          "jobs": {
            "nodes": [
              {
                "status": "SUCCESS"
              },
              {
                "status": "SUCCESS"
              }
            ]
          }
        },
        {
          "name": "setup",
          "jobs": {
            "nodes": [
              {
                "status": "SUCCESS"
              },
              {
                "status": "SUCCESS"
              }
            ]
          }
        },
        {
          "name": "test",
          "jobs": {
            "nodes": [
              {
                "status": "SUCCESS"
              },
              {
                "status": "SUCCESS"
              }
            ]
          }
        },
        {
          "name": "kernel-results",
          "jobs": {
            "nodes": [
              {
                "status": "SUCCESS"
              },
              {
                "status": "SUCCESS"
              }
            ]
          }
        }
      ]
    }
  }
}
