{
  "checkouts": [
    {
      "id": "redhat:1555224113",
      "origin": "redhat",
      "tree_name": "c9s",
      "git_repository_url": "https://gitlab.com/redhat/centos-stream/src/kernel/centos-stream-9.git",
      "git_repository_branch": "main",
      "git_commit_hash": "e8b9af279e48091ee51bdbb8a4ca4b204778b35a",
      "git_commit_name": "kernel-5.14.0-532.el9-2-ge8b9af279e48",
      "patchset_hash": "",
      "comment": "Merge: Draft: CVE-2024-53095: smb: client: Fix use-after-free of network namespace.",
      "start_time": "2024-11-21T19:50:13.789024Z",
      "log_excerpt": "",
      "valid": true,
      "misc": {
        "kcidb": {
          "version": {
            "major": 4,
            "minor": 2
          }
        },
        "iid": 201577,
        "is_public": true,
        "is_missing_triage": false,
        "actions": {
          "last_triaged_at": "2024-11-21T20:02:00.747999Z"
        },
        "scratch": true,
        "retrigger": false,
        "patchset_modified_files": [
          {
            "path": "fs/smb/client/connect.c"
          }
        ],
        "related_merge_request": {
          "id": 5843,
          "url": "https://gitlab.com/redhat/centos-stream/src/kernel/centos-stream-9/-/merge_requests/5843",
          "diff_url": "https://s3.amazonaws.com/arr-cki-prod-trusted-artifacts/trusted-artifacts/1555224113/merge/8440478632/artifacts/mr.diff"
        },
        "kernel_version": "5.14.0-532.5843_1555224026.el9",
        "source_package_name": "kernel",
        "source_package_version": "5.14.0",
        "source_package_release": "532.5843_1555224026.el9",
        "provenance": [
          {
            "url": "https://gitlab.com/redhat/red-hat-ci-tools/kernel/cki-internal-pipelines/cki-trusted-contributors/-/pipelines/1555224113",
            "function": "coordinator",
            "service_name": "gitlab"
          }
        ]
      }
    }
  ],
  "builds": [
    {
      "checkout_id": "redhat:1555224113",
      "id": "redhat:1555224113-x86_64-kernel-debug",
      "origin": "redhat",
      "comment": "CKI build of c9s",
      "start_time": "2024-11-21T21:26:22.880398Z",
      "architecture": "x86_64",
      "command": "rpmbuild --target x86_64 --with up --with zfcpdump --with debug --without trace --without up --without zfcpdump --without arm64_16k --without arm64_64k --without base --without realtime",
      "compiler": "gcc (GCC) 11.5.0 20240719 (Red Hat 11.5.0-2)",
      "output_files": [
        {
          "url": "https://s3.amazonaws.com/arr-cki-prod-trusted-artifacts/trusted-artifacts/1555224113/build_x86_64_debug/8440478651/artifacts/buildroot-build.txt",
          "name": "buildroot-build.txt"
        }
      ],
      "log_url": "https://s3.amazonaws.com/arr-cki-prod-trusted-artifacts/trusted-artifacts/1555224113/build_x86_64_debug/8440478651/artifacts/build.log",
      "log_excerpt": "00:01:09       |                                     ^~~~\n00:05:27 drivers/scsi/Makefile:196: FORCE prerequisite is missing\n00:14:00 + '[' 1 -eq 1 ']'\n00:14:00 + /usr/bin/make -s 'HOSTCFLAGS=-O2  -fexceptions -g -grecord-gcc-switches -pipe -Wall -Werror=format-security -Wp,-D_FORTIFY_SOURCE=2 -Wp,-D_GLIBCXX_ASSERTIONS -specs=/usr/lib/rpm/redhat/redhat-hardened-cc1 -fstack-protector-strong -specs=/usr/lib/rpm/redhat/redhat-annobin-cc1  -m64 -march=x86-64-v2 -mtune=generic -fasynchronous-unwind-tables -fstack-clash-protection -fcf-protection' 'HOSTLDFLAGS=-Wl,-z,relro -Wl,--as-needed  -Wl,-z,now -specs=/usr/lib/rpm/redhat/redhat-hardened-ld -specs=/usr/lib/rpm/redhat/redhat-annobin-cc1 ' ARCH=x86_64 KCFLAGS= WITH_GCOV=0 -j16 modules\n00:15:46 fs/smb/client/connect.c: In function ‘generic_ip_connect’:\n00:15:46 fs/smb/client/connect.c:3085:17: error: implicit declaration of function ‘__netns_tracker_free’; did you mean ‘netns_tracker_free’? [-Werror=implicit-function-declaration]\n00:15:46  3085 |                 __netns_tracker_free(net, &sk->ns_tracker, false);\n00:15:46       |                 ^~~~~~~~~~~~~~~~~~~~\n00:15:46       |                 netns_tracker_free\n00:15:50 cc1: all warnings being treated as errors\n00:15:50 make[3]: *** [scripts/Makefile.build:249: fs/smb/client/connect.o] Error 1\n00:15:50 make[3]: *** Waiting for unfinished jobs....\n00:15:57 make[2]: *** [scripts/Makefile.build:478: fs/smb/client] Error 2\n00:15:57 make[1]: *** [scripts/Makefile.build:478: fs/smb] Error 2\n00:15:57 make[1]: *** Waiting for unfinished jobs....\n00:17:15 make: *** [Makefile:1944: fs] Error 2\n00:17:15 make: *** Waiting for unfinished jobs....\n00:31:44 + exit 1\n00:31:44 error: Bad exit status from /var/tmp/rpm-tmp.4gdA07 (%build)\n00:31:44 \n00:31:44 \n00:31:44 RPM build errors:\n00:31:44     Bad exit status from /var/tmp/rpm-tmp.4gdA07 (%build)",
      "valid": false,
      "misc": {
        "kcidb": {
          "version": {
            "major": 4,
            "minor": 2
          }
        },
        "iid": 733709,
        "is_public": true,
        "is_missing_triage": true,
        "actions": {
          "last_triaged_at": "2024-11-22T00:31:09.867510Z"
        },
        "debug": true,
        "package_name": "kernel-debug",
        "package_version": "5.14.0",
        "package_release": "532.5843_1555224026.el9",
        "retrigger": false,
        "provenance": [
          {
            "url": "https://gitlab.com/redhat/red-hat-ci-tools/kernel/cki-internal-pipelines/cki-trusted-contributors/-/jobs/8440478651",
            "function": "executor",
            "service_name": "gitlab"
          }
        ]
      }
    },
    {
      "checkout_id": "redhat:1555224113",
      "id": "redhat:1555224113-x86_64-kernel",
      "origin": "redhat",
      "comment": "CKI build of c9s",
      "start_time": "2024-11-21T20:19:19.833479Z",
      "architecture": "x86_64",
      "command": "rpmbuild --target x86_64 --with up --with zfcpdump --without trace --without arm64_16k --without arm64_64k --without base --without debug --without realtime",
      "compiler": "gcc (GCC) 11.5.0 20240719 (Red Hat 11.5.0-2)",
      "output_files": [
        {
          "url": "https://s3.amazonaws.com/arr-cki-prod-trusted-artifacts/trusted-artifacts/1555224113/build_x86_64/8440478645/artifacts/buildroot-build.txt",
          "name": "buildroot-build.txt"
        }
      ],
      "log_url": "https://s3.amazonaws.com/arr-cki-prod-trusted-artifacts/trusted-artifacts/1555224113/build_x86_64/8440478645/artifacts/build.log",
      "log_excerpt": "00:00:33       |                                     ^~~~\n00:02:06 drivers/scsi/Makefile:196: FORCE prerequisite is missing\n00:03:35 + '[' 1 -eq 1 ']'\n00:03:35 + /usr/bin/make -s 'HOSTCFLAGS=-O2  -fexceptions -g -grecord-gcc-switches -pipe -Wall -Werror=format-security -Wp,-D_FORTIFY_SOURCE=2 -Wp,-D_GLIBCXX_ASSERTIONS -specs=/usr/lib/rpm/redhat/redhat-hardened-cc1 -fstack-protector-strong -specs=/usr/lib/rpm/redhat/redhat-annobin-cc1  -m64 -march=x86-64-v2 -mtune=generic -fasynchronous-unwind-tables -fstack-clash-protection -fcf-protection' 'HOSTLDFLAGS=-Wl,-z,relro -Wl,--as-needed  -Wl,-z,now -specs=/usr/lib/rpm/redhat/redhat-hardened-ld -specs=/usr/lib/rpm/redhat/redhat-annobin-cc1 ' ARCH=x86_64 'KCFLAGS= -fdump-ipa-clones' WITH_GCOV=0 -j16 modules\n00:04:25 fs/smb/client/connect.c: In function ‘generic_ip_connect’:\n00:04:25 fs/smb/client/connect.c:3085:17: error: implicit declaration of function ‘__netns_tracker_free’; did you mean ‘netns_tracker_free’? [-Werror=implicit-function-declaration]\n00:04:25  3085 |                 __netns_tracker_free(net, &sk->ns_tracker, false);\n00:04:25       |                 ^~~~~~~~~~~~~~~~~~~~\n00:04:25       |                 netns_tracker_free\n00:04:26 cc1: all warnings being treated as errors\n00:04:26 make[3]: *** [scripts/Makefile.build:249: fs/smb/client/connect.o] Error 1\n00:04:26 make[2]: *** [scripts/Makefile.build:478: fs/smb/client] Error 2\n00:04:26 make[1]: *** [scripts/Makefile.build:478: fs/smb] Error 2\n00:04:26 make[1]: *** Waiting for unfinished jobs....\n00:05:06 make: *** [Makefile:1944: fs] Error 2\n00:05:06 make: *** Waiting for unfinished jobs....\n00:09:50 + exit 1\n00:09:50 error: Bad exit status from /var/tmp/rpm-tmp.MgMUfI (%build)\n00:09:50 \n00:09:50 \n00:09:50 RPM build errors:\n00:09:50     Bad exit status from /var/tmp/rpm-tmp.MgMUfI (%build)",
      "valid": false,
      "misc": {
        "kcidb": {
          "version": {
            "major": 4,
            "minor": 2
          }
        },
        "iid": 733708,
        "is_public": true,
        "is_missing_triage": true,
        "actions": {
          "last_triaged_at": "2024-11-21T20:30:04.348843Z"
        },
        "debug": false,
        "package_name": "kernel",
        "package_version": "5.14.0",
        "package_release": "532.5843_1555224026.el9",
        "retrigger": false,
        "provenance": [
          {
            "url": "https://gitlab.com/redhat/red-hat-ci-tools/kernel/cki-internal-pipelines/cki-trusted-contributors/-/jobs/8440478645",
            "function": "executor",
            "service_name": "gitlab"
          }
        ]
      }
    },
    {
      "checkout_id": "redhat:1555224113",
      "id": "redhat:1555224113-s390x-kernel-debug",
      "origin": "redhat",
      "comment": "CKI build of c9s",
      "start_time": "2024-11-21T20:19:19.412791Z",
      "architecture": "s390x",
      "command": "rpmbuild --target s390x --with cross --with up --with zfcpdump --with debug --without bpftool --without ipaclones --without libperf --without perf --without selftests --without tools --without trace --without up --without zfcpdump --without arm64_16k --without arm64_64k --without base --without realtime",
      "compiler": "s390x-linux-gnu-gcc (GCC) 12.1.1 20220507 (Red Hat Cross 12.1.1-1)",
      "output_files": [
        {
          "url": "https://s3.amazonaws.com/arr-cki-prod-trusted-artifacts/trusted-artifacts/1555224113/build_s390x_debug/8440478684/artifacts/buildroot-build.txt",
          "name": "buildroot-build.txt"
        }
      ],
      "log_url": "https://s3.amazonaws.com/arr-cki-prod-trusted-artifacts/trusted-artifacts/1555224113/build_s390x_debug/8440478684/artifacts/build.log",
      "log_excerpt": "00:00:21 + /usr/bin/make CROSS_COMPILE=s390x-linux-gnu- -s HOSTCFLAGS= HOSTLDFLAGS= ARCH=s390 KCFLAGS= WITH_GCOV=0 -j16 bzImage\n00:01:34 drivers/scsi/Makefile:196: FORCE prerequisite is missing\n00:02:42 + '[' 1 -eq 1 ']'\n00:02:42 + /usr/bin/make CROSS_COMPILE=s390x-linux-gnu- -s HOSTCFLAGS= HOSTLDFLAGS= ARCH=s390 KCFLAGS= WITH_GCOV=0 -j16 modules\n00:03:13 fs/smb/client/connect.c: In function ‘generic_ip_connect’:\n00:03:13 fs/smb/client/connect.c:3085:17: error: implicit declaration of function ‘__netns_tracker_free’; did you mean ‘netns_tracker_free’? [-Werror=implicit-function-declaration]\n00:03:13  3085 |                 __netns_tracker_free(net, &sk->ns_tracker, false);\n00:03:13       |                 ^~~~~~~~~~~~~~~~~~~~\n00:03:13       |                 netns_tracker_free\n00:03:15 cc1: all warnings being treated as errors\n00:03:15 make[3]: *** [scripts/Makefile.build:249: fs/smb/client/connect.o] Error 1\n00:03:15 make[3]: *** Waiting for unfinished jobs....\n00:03:16 make[2]: *** [scripts/Makefile.build:478: fs/smb/client] Error 2\n00:03:16 make[1]: *** [scripts/Makefile.build:478: fs/smb] Error 2\n00:03:16 make[1]: *** Waiting for unfinished jobs....\n00:03:59 make: *** [Makefile:1944: fs] Error 2\n00:03:59 make: *** Waiting for unfinished jobs....\n00:05:10 + exit 1\n00:05:10 error: Bad exit status from /var/tmp/rpm-tmp.QqoBXZ (%build)\n00:05:10 \n00:05:10 \n00:05:10 RPM build errors:\n00:05:10     Bad exit status from /var/tmp/rpm-tmp.QqoBXZ (%build)",
      "valid": false,
      "misc": {
        "kcidb": {
          "version": {
            "major": 4,
            "minor": 2
          }
        },
        "iid": 733707,
        "is_public": true,
        "is_missing_triage": true,
        "actions": {
          "last_triaged_at": "2024-11-21T20:25:03.742310Z"
        },
        "debug": true,
        "package_name": "kernel-debug",
        "package_version": "5.14.0",
        "package_release": "532.5843_1555224026.el9",
        "retrigger": false,
        "provenance": [
          {
            "url": "https://gitlab.com/redhat/red-hat-ci-tools/kernel/cki-internal-pipelines/cki-trusted-contributors/-/jobs/8440478684",
            "function": "executor",
            "service_name": "gitlab"
          }
        ]
      }
    },
    {
      "checkout_id": "redhat:1555224113",
      "id": "redhat:1555224113-s390x-kernel",
      "origin": "redhat",
      "comment": "CKI build of c9s",
      "start_time": "2024-11-21T20:20:47.442570Z",
      "architecture": "s390x",
      "command": "rpmbuild --target s390x --with cross --with up --with zfcpdump --without bpftool --without ipaclones --without libperf --without perf --without selftests --without tools --without trace --without arm64_16k --without arm64_64k --without base --without debug --without realtime",
      "compiler": "s390x-linux-gnu-gcc (GCC) 12.1.1 20220507 (Red Hat Cross 12.1.1-1)",
      "output_files": [
        {
          "url": "https://s3.amazonaws.com/arr-cki-prod-trusted-artifacts/trusted-artifacts/1555224113/build_s390x/8440478674/artifacts/buildroot-build.txt",
          "name": "buildroot-build.txt"
        }
      ],
      "log_url": "https://s3.amazonaws.com/arr-cki-prod-trusted-artifacts/trusted-artifacts/1555224113/build_s390x/8440478674/artifacts/build.log",
      "log_excerpt": "00:01:55 + /usr/bin/make CROSS_COMPILE=s390x-linux-gnu- -s HOSTCFLAGS= HOSTLDFLAGS= ARCH=s390 'KCFLAGS= ' WITH_GCOV=0 -j16 bzImage\n00:04:05 drivers/scsi/Makefile:196: FORCE prerequisite is missing\n00:05:08 + '[' 1 -eq 1 ']'\n00:05:08 + /usr/bin/make CROSS_COMPILE=s390x-linux-gnu- -s HOSTCFLAGS= HOSTLDFLAGS= ARCH=s390 'KCFLAGS= ' WITH_GCOV=0 -j16 modules\n00:06:14 fs/smb/client/connect.c: In function ‘generic_ip_connect’:\n00:06:14 fs/smb/client/connect.c:3085:17: error: implicit declaration of function ‘__netns_tracker_free’; did you mean ‘netns_tracker_free’? [-Werror=implicit-function-declaration]\n00:06:14  3085 |                 __netns_tracker_free(net, &sk->ns_tracker, false);\n00:06:14       |                 ^~~~~~~~~~~~~~~~~~~~\n00:06:14       |                 netns_tracker_free\n00:06:16 cc1: all warnings being treated as errors\n00:06:16 make[3]: *** [scripts/Makefile.build:249: fs/smb/client/connect.o] Error 1\n00:06:16 make[3]: *** Waiting for unfinished jobs....\n00:06:17 make[2]: *** [scripts/Makefile.build:478: fs/smb/client] Error 2\n00:06:17 make[1]: *** [scripts/Makefile.build:478: fs/smb] Error 2\n00:06:17 make[1]: *** Waiting for unfinished jobs....\n00:07:14 make: *** [Makefile:1944: fs] Error 2\n00:07:14 make: *** Waiting for unfinished jobs....\n00:09:03 + exit 1\n00:09:03 error: Bad exit status from /var/tmp/rpm-tmp.HsRXkv (%build)\n00:09:03 \n00:09:03 \n00:09:03 RPM build errors:\n00:09:03     Bad exit status from /var/tmp/rpm-tmp.HsRXkv (%build)",
      "valid": false,
      "misc": {
        "kcidb": {
          "version": {
            "major": 4,
            "minor": 2
          }
        },
        "iid": 733706,
        "is_public": true,
        "is_missing_triage": true,
        "actions": {
          "last_triaged_at": "2024-11-21T20:31:04.526942Z"
        },
        "debug": false,
        "package_name": "kernel",
        "package_version": "5.14.0",
        "package_release": "532.5843_1555224026.el9",
        "retrigger": false,
        "provenance": [
          {
            "url": "https://gitlab.com/redhat/red-hat-ci-tools/kernel/cki-internal-pipelines/cki-trusted-contributors/-/jobs/8440478674",
            "function": "executor",
            "service_name": "gitlab"
          }
        ]
      }
    },
    {
      "checkout_id": "redhat:1555224113",
      "id": "redhat:1555224113-ppc64le-kernel-debug",
      "origin": "redhat",
      "comment": "CKI build of c9s",
      "start_time": "2024-11-21T20:21:44.473814Z",
      "architecture": "ppc64le",
      "command": "rpmbuild --target ppc64le --with cross --with up --with zfcpdump --with debug --without bpftool --without ipaclones --without libperf --without perf --without selftests --without tools --without trace --without up --without zfcpdump --without arm64_16k --without arm64_64k --without base --without realtime",
      "compiler": "powerpc64le-linux-gnu-gcc (GCC) 12.1.1 20220507 (Red Hat Cross 12.1.1-1)",
      "output_files": [
        {
          "url": "https://s3.amazonaws.com/arr-cki-prod-trusted-artifacts/trusted-artifacts/1555224113/build_ppc64le_debug/8440478654/artifacts/buildroot-build.txt",
          "name": "buildroot-build.txt"
        }
      ],
      "log_url": "https://s3.amazonaws.com/arr-cki-prod-trusted-artifacts/trusted-artifacts/1555224113/build_ppc64le_debug/8440478654/artifacts/build.log",
      "log_excerpt": "00:01:49 drivers/scsi/Makefile:196: FORCE prerequisite is missing\n00:02:14 WARNING: modpost: vmlinux: section mismatch in reference: iommu_init_early_pSeries (section: .text) -> set_pci_dma_ops (section: .init.text)\n00:02:43 + '[' 1 -eq 1 ']'\n00:02:43 + /usr/bin/make CROSS_COMPILE=ppc64le-linux-gnu- -s HOSTCFLAGS= HOSTLDFLAGS= ARCH=powerpc KCFLAGS= WITH_GCOV=0 -j16 modules\n00:03:32 fs/smb/client/connect.c: In function ‘generic_ip_connect’:\n00:03:32 fs/smb/client/connect.c:3085:17: error: implicit declaration of function ‘__netns_tracker_free’; did you mean ‘netns_tracker_free’? [-Werror=implicit-function-declaration]\n00:03:32  3085 |                 __netns_tracker_free(net, &sk->ns_tracker, false);\n00:03:32       |                 ^~~~~~~~~~~~~~~~~~~~\n00:03:32       |                 netns_tracker_free\n00:03:33 cc1: all warnings being treated as errors\n00:03:33 make[3]: *** [scripts/Makefile.build:249: fs/smb/client/connect.o] Error 1\n00:03:33 make[2]: *** [scripts/Makefile.build:478: fs/smb/client] Error 2\n00:03:33 make[1]: *** [scripts/Makefile.build:478: fs/smb] Error 2\n00:03:33 make[1]: *** Waiting for unfinished jobs....\n00:04:26 make: *** [Makefile:1944: fs] Error 2\n00:04:26 make: *** Waiting for unfinished jobs....\n00:07:19 + exit 1\n00:07:19 error: Bad exit status from /var/tmp/rpm-tmp.P4Jkdh (%build)\n00:07:19 \n00:07:19 \n00:07:19 RPM build errors:\n00:07:19     Bad exit status from /var/tmp/rpm-tmp.P4Jkdh (%build)",
      "valid": false,
      "misc": {
        "kcidb": {
          "version": {
            "major": 4,
            "minor": 2
          }
        },
        "iid": 733705,
        "is_public": true,
        "is_missing_triage": true,
        "actions": {
          "last_triaged_at": "2024-11-21T20:30:04.135339Z"
        },
        "debug": true,
        "package_name": "kernel-debug",
        "package_version": "5.14.0",
        "package_release": "532.5843_1555224026.el9",
        "retrigger": false,
        "provenance": [
          {
            "url": "https://gitlab.com/redhat/red-hat-ci-tools/kernel/cki-internal-pipelines/cki-trusted-contributors/-/jobs/8440478654",
            "function": "executor",
            "service_name": "gitlab"
          }
        ]
      }
    },
    {
      "checkout_id": "redhat:1555224113",
      "id": "redhat:1555224113-ppc64le-kernel",
      "origin": "redhat",
      "comment": "CKI build of c9s",
      "start_time": "2024-11-21T21:26:23.738491Z",
      "architecture": "ppc64le",
      "command": "rpmbuild --target ppc64le --with cross --with up --with zfcpdump --without bpftool --without ipaclones --without libperf --without perf --without selftests --without tools --without trace --without arm64_16k --without arm64_64k --without base --without debug --without realtime",
      "compiler": "powerpc64le-linux-gnu-gcc (GCC) 12.1.1 20220507 (Red Hat Cross 12.1.1-1)",
      "output_files": [
        {
          "url": "https://s3.amazonaws.com/arr-cki-prod-trusted-artifacts/trusted-artifacts/1555224113/build_ppc64le/8440478653/artifacts/buildroot-build.txt",
          "name": "buildroot-build.txt"
        }
      ],
      "log_url": "https://s3.amazonaws.com/arr-cki-prod-trusted-artifacts/trusted-artifacts/1555224113/build_ppc64le/8440478653/artifacts/build.log",
      "log_excerpt": "00:03:34 drivers/scsi/Makefile:196: FORCE prerequisite is missing\n00:04:20 WARNING: modpost: vmlinux: section mismatch in reference: iommu_init_early_pSeries (section: .text) -> set_pci_dma_ops (section: .init.text)\n00:09:33 + '[' 1 -eq 1 ']'\n00:09:33 + /usr/bin/make CROSS_COMPILE=ppc64le-linux-gnu- -s HOSTCFLAGS= HOSTLDFLAGS= ARCH=powerpc 'KCFLAGS= ' WITH_GCOV=0 -j16 modules\n00:12:01 fs/smb/client/connect.c: In function ‘generic_ip_connect’:\n00:12:01 fs/smb/client/connect.c:3085:17: error: implicit declaration of function ‘__netns_tracker_free’; did you mean ‘netns_tracker_free’? [-Werror=implicit-function-declaration]\n00:12:01  3085 |                 __netns_tracker_free(net, &sk->ns_tracker, false);\n00:12:01       |                 ^~~~~~~~~~~~~~~~~~~~\n00:12:01       |                 netns_tracker_free\n00:12:03 cc1: all warnings being treated as errors\n00:12:03 make[3]: *** [scripts/Makefile.build:249: fs/smb/client/connect.o] Error 1\n00:12:03 make[2]: *** [scripts/Makefile.build:478: fs/smb/client] Error 2\n00:12:03 make[1]: *** [scripts/Makefile.build:478: fs/smb] Error 2\n00:12:03 make: *** [Makefile:1944: fs] Error 2\n00:12:03 make: *** Waiting for unfinished jobs....\n00:17:40 + exit 1\n00:17:40 error: Bad exit status from /var/tmp/rpm-tmp.liyShq (%build)\n00:17:40 \n00:17:40 \n00:17:40 RPM build errors:\n00:17:40     Bad exit status from /var/tmp/rpm-tmp.liyShq (%build)",
      "valid": false,
      "misc": {
        "kcidb": {
          "version": {
            "major": 4,
            "minor": 2
          }
        },
        "iid": 733704,
        "is_public": true,
        "is_missing_triage": true,
        "actions": {
          "last_triaged_at": "2024-11-21T21:46:12.641716Z"
        },
        "debug": false,
        "package_name": "kernel",
        "package_version": "5.14.0",
        "package_release": "532.5843_1555224026.el9",
        "retrigger": false,
        "provenance": [
          {
            "url": "https://gitlab.com/redhat/red-hat-ci-tools/kernel/cki-internal-pipelines/cki-trusted-contributors/-/jobs/8440478653",
            "function": "executor",
            "service_name": "gitlab"
          }
        ]
      }
    },
    {
      "checkout_id": "redhat:1555224113",
      "id": "redhat:1555224113-noarch-kernel",
      "origin": "redhat",
      "comment": "CKI build of c9s",
      "start_time": "2024-11-21T20:03:12.692471Z",
      "duration": 842,
      "architecture": "noarch",
      "command": "rpmbuild --rebuild --target noarch",
      "compiler": "gcc (GCC) 11.5.0 20240719 (Red Hat 11.5.0-2)",
      "output_files": [
        {
          "url": "https://s3.amazonaws.com/arr-cki-prod-trusted-artifacts/trusted-artifacts/1555224113/build_noarch/8440478640/artifacts/buildroot-build.txt",
          "name": "buildroot-build.txt"
        }
      ],
      "log_url": "https://s3.amazonaws.com/arr-cki-prod-trusted-artifacts/trusted-artifacts/1555224113/build_noarch/8440478640/artifacts/build.log",
      "valid": true,
      "misc": {
        "kcidb": {
          "version": {
            "major": 4,
            "minor": 2
          }
        },
        "iid": 733703,
        "is_public": true,
        "is_missing_triage": false,
        "actions": {
          "last_triaged_at": "2024-11-21T20:18:02.802058Z"
        },
        "debug": false,
        "package_name": "kernel",
        "package_version": "5.14.0",
        "package_release": "532.5843_1555224026.el9",
        "retrigger": false,
        "provenance": [
          {
            "url": "https://gitlab.com/redhat/red-hat-ci-tools/kernel/cki-internal-pipelines/cki-trusted-contributors/-/jobs/8440478640",
            "function": "executor",
            "service_name": "gitlab"
          }
        ]
      }
    },
    {
      "checkout_id": "redhat:1555224113",
      "id": "redhat:1555224113-aarch64-kernel-debug",
      "origin": "redhat",
      "comment": "CKI build of c9s",
      "start_time": "2024-11-21T20:18:46.339486Z",
      "architecture": "aarch64",
      "command": "rpmbuild --target aarch64 --with up --with zfcpdump --with debug --without trace --without up --without zfcpdump --without arm64_16k --without arm64_64k --without base --without realtime",
      "compiler": "gcc (GCC) 11.5.0 20240719 (Red Hat 11.5.0-2)",
      "output_files": [
        {
          "url": "https://s3.amazonaws.com/arr-cki-prod-trusted-artifacts/trusted-artifacts/1555224113/build_aarch64_debug/8440478666/artifacts/buildroot-build.txt",
          "name": "buildroot-build.txt"
        }
      ],
      "log_url": "https://s3.amazonaws.com/arr-cki-prod-trusted-artifacts/trusted-artifacts/1555224113/build_aarch64_debug/8440478666/artifacts/build.log",
      "log_excerpt": "00:00:37       |                                     ^~~~\n00:03:06 drivers/scsi/Makefile:196: FORCE prerequisite is missing\n00:04:28 + '[' 1 -eq 1 ']'\n00:04:28 + /usr/bin/make -s 'HOSTCFLAGS=-O2  -fexceptions -g -grecord-gcc-switches -pipe -Wall -Werror=format-security -Wp,-D_FORTIFY_SOURCE=2 -Wp,-D_GLIBCXX_ASSERTIONS -specs=/usr/lib/rpm/redhat/redhat-hardened-cc1 -fstack-protector-strong -specs=/usr/lib/rpm/redhat/redhat-annobin-cc1  -fasynchronous-unwind-tables -fstack-clash-protection' 'HOSTLDFLAGS=-Wl,-z,relro -Wl,--as-needed  -Wl,-z,now -specs=/usr/lib/rpm/redhat/redhat-hardened-ld -specs=/usr/lib/rpm/redhat/redhat-annobin-cc1 ' ARCH=arm64 KCFLAGS= WITH_GCOV=0 -j16 modules\n00:05:35 fs/smb/client/connect.c: In function ‘generic_ip_connect’:\n00:05:35 fs/smb/client/connect.c:3085:17: error: implicit declaration of function ‘__netns_tracker_free’; did you mean ‘netns_tracker_free’? [-Werror=implicit-function-declaration]\n00:05:35  3085 |                 __netns_tracker_free(net, &sk->ns_tracker, false);\n00:05:35       |                 ^~~~~~~~~~~~~~~~~~~~\n00:05:35       |                 netns_tracker_free\n00:05:38 cc1: all warnings being treated as errors\n00:05:38 make[3]: *** [scripts/Makefile.build:249: fs/smb/client/connect.o] Error 1\n00:05:38 make[2]: *** [scripts/Makefile.build:478: fs/smb/client] Error 2\n00:05:38 make[1]: *** [scripts/Makefile.build:478: fs/smb] Error 2\n00:05:38 make[1]: *** Waiting for unfinished jobs....\n00:06:41 make: *** [Makefile:1944: fs] Error 2\n00:06:41 make: *** Waiting for unfinished jobs....\n00:13:28 + exit 1\n00:13:28 error: Bad exit status from /var/tmp/rpm-tmp.l4X6ao (%build)\n00:13:28 \n00:13:28 \n00:13:28 RPM build errors:\n00:13:28     Bad exit status from /var/tmp/rpm-tmp.l4X6ao (%build)",
      "valid": false,
      "misc": {
        "kcidb": {
          "version": {
            "major": 4,
            "minor": 2
          }
        },
        "iid": 733702,
        "is_public": true,
        "is_missing_triage": true,
        "actions": {
          "last_triaged_at": "2024-11-21T20:33:14.085816Z"
        },
        "debug": true,
        "package_name": "kernel-debug",
        "package_version": "5.14.0",
        "package_release": "532.5843_1555224026.el9",
        "retrigger": false,
        "provenance": [
          {
            "url": "https://gitlab.com/redhat/red-hat-ci-tools/kernel/cki-internal-pipelines/cki-trusted-contributors/-/jobs/8440478666",
            "function": "executor",
            "service_name": "gitlab"
          }
        ]
      }
    },
    {
      "checkout_id": "redhat:1555224113",
      "id": "redhat:1555224113-aarch64-kernel",
      "origin": "redhat",
      "comment": "CKI build of c9s",
      "start_time": "2024-11-21T20:23:29.294848Z",
      "architecture": "aarch64",
      "command": "rpmbuild --target aarch64 --with up --with zfcpdump --without trace --without arm64_16k --without arm64_64k --without base --without debug --without realtime",
      "compiler": "gcc (GCC) 11.5.0 20240719 (Red Hat 11.5.0-2)",
      "output_files": [
        {
          "url": "https://s3.amazonaws.com/arr-cki-prod-trusted-artifacts/trusted-artifacts/1555224113/build_aarch64/8440478660/artifacts/buildroot-build.txt",
          "name": "buildroot-build.txt"
        }
      ],
      "log_url": "https://s3.amazonaws.com/arr-cki-prod-trusted-artifacts/trusted-artifacts/1555224113/build_aarch64/8440478660/artifacts/build.log",
      "log_excerpt": "00:00:33       |                                     ^~~~\n00:02:35 drivers/scsi/Makefile:196: FORCE prerequisite is missing\n00:03:41 + '[' 1 -eq 1 ']'\n00:03:41 + /usr/bin/make -s 'HOSTCFLAGS=-O2  -fexceptions -g -grecord-gcc-switches -pipe -Wall -Werror=format-security -Wp,-D_FORTIFY_SOURCE=2 -Wp,-D_GLIBCXX_ASSERTIONS -specs=/usr/lib/rpm/redhat/redhat-hardened-cc1 -fstack-protector-strong -specs=/usr/lib/rpm/redhat/redhat-annobin-cc1  -fasynchronous-unwind-tables -fstack-clash-protection' 'HOSTLDFLAGS=-Wl,-z,relro -Wl,--as-needed  -Wl,-z,now -specs=/usr/lib/rpm/redhat/redhat-hardened-ld -specs=/usr/lib/rpm/redhat/redhat-annobin-cc1 ' ARCH=arm64 'KCFLAGS= ' WITH_GCOV=0 -j16 modules\n00:04:41 fs/smb/client/connect.c: In function ‘generic_ip_connect’:\n00:04:41 fs/smb/client/connect.c:3085:17: error: implicit declaration of function ‘__netns_tracker_free’; did you mean ‘netns_tracker_free’? [-Werror=implicit-function-declaration]\n00:04:41  3085 |                 __netns_tracker_free(net, &sk->ns_tracker, false);\n00:04:41       |                 ^~~~~~~~~~~~~~~~~~~~\n00:04:41       |                 netns_tracker_free\n00:04:42 cc1: all warnings being treated as errors\n00:04:42 make[3]: *** [scripts/Makefile.build:249: fs/smb/client/connect.o] Error 1\n00:04:42 make[3]: *** Waiting for unfinished jobs....\n00:04:43 make[2]: *** [scripts/Makefile.build:478: fs/smb/client] Error 2\n00:04:43 make[1]: *** [scripts/Makefile.build:478: fs/smb] Error 2\n00:04:43 make[1]: *** Waiting for unfinished jobs....\n00:06:42 make: *** [Makefile:1944: fs] Error 2\n00:06:42 make: *** Waiting for unfinished jobs....\n00:10:39 + exit 1\n00:10:39 error: Bad exit status from /var/tmp/rpm-tmp.KbUmqp (%build)\n00:10:39 \n00:10:39 \n00:10:39 RPM build errors:\n00:10:39     Bad exit status from /var/tmp/rpm-tmp.KbUmqp (%build)",
      "valid": false,
      "misc": {
        "kcidb": {
          "version": {
            "major": 4,
            "minor": 2
          }
        },
        "iid": 733701,
        "is_public": true,
        "is_missing_triage": true,
        "actions": {
          "last_triaged_at": "2024-11-21T20:35:04.575563Z"
        },
        "debug": false,
        "package_name": "kernel",
        "package_version": "5.14.0",
        "package_release": "532.5843_1555224026.el9",
        "retrigger": false,
        "provenance": [
          {
            "url": "https://gitlab.com/redhat/red-hat-ci-tools/kernel/cki-internal-pipelines/cki-trusted-contributors/-/jobs/8440478660",
            "function": "executor",
            "service_name": "gitlab"
          }
        ]
      }
    }
  ],
  "tests": [],
  "testresults": [],
  "issueoccurrences": []
}
