{
  "expand": "renderedFields,names,schema,operations,editmeta,changelog,versionedRepresentations",
  "id": "16352717",
  "self": "https://issues.stage.redhat.com/rest/api/2/issue/16352717",
  "key": "RHEL-59973",
  "fields": {
    "customfield_12322243": null,
    "customfield_12318141": null,
    "customfield_12322244": null,
    "customfield_12322640": null,
    "customfield_12316240": null,
    "customfield_12322241": null,
    "fixVersions": [],
    "resolution": null,
    "customfield_12314740": "{summaryBean=com.atlassian.jira.plugin.devstatus.rest.SummaryBean@1b164bba[summary={pullrequest=com.atlassian.jira.plugin.devstatus.rest.SummaryItemBean@1a2f4fc2[overall=PullRequestOverallBean{stateCount=0, state='OPEN', details=PullRequestOverallDetails{openCount=0, mergedCount=0, declinedCount=0}},byInstanceType={}], build=com.atlassian.jira.plugin.devstatus.rest.SummaryItemBean@63dfc647[overall=com.atlassian.jira.plugin.devstatus.summary.beans.BuildOverallBean@36ec4a1[failedBuildCount=0,successfulBuildCount=0,unknownBuildCount=0,count=0,lastUpdated=<null>,lastUpdatedTimestamp=<null>],byInstanceType={}], review=com.atlassian.jira.plugin.devstatus.rest.SummaryItemBean@4ce6956b[overall=com.atlassian.jira.plugin.devstatus.summary.beans.ReviewsOverallBean@6e004f51[stateCount=0,state=<null>,dueDate=<null>,overDue=false,count=0,lastUpdated=<null>,lastUpdatedTimestamp=<null>],byInstanceType={}], deployment-environment=com.atlassian.jira.plugin.devstatus.rest.SummaryItemBean@73704128[overall=com.atlassian.jira.plugin.devstatus.summary.beans.DeploymentOverallBean@6cec82b[topEnvironments=[],showProjects=false,successfulCount=0,count=0,lastUpdated=<null>,lastUpdatedTimestamp=<null>],byInstanceType={}], repository=com.atlassian.jira.plugin.devstatus.rest.SummaryItemBean@7efb5854[overall=com.atlassian.jira.plugin.devstatus.summary.beans.CommitOverallBean@126dfa1d[count=0,lastUpdated=<null>,lastUpdatedTimestamp=<null>],byInstanceType={}], branch=com.atlassian.jira.plugin.devstatus.rest.SummaryItemBean@63e58079[overall=com.atlassian.jira.plugin.devstatus.summary.beans.BranchOverallBean@139a83be[count=0,lastUpdated=<null>,lastUpdatedTimestamp=<null>],byInstanceType={}]},errors=[],configErrors=[]], devSummaryJson={\"cachedValue\":{\"errors\":[],\"configErrors\":[],\"summary\":{\"pullrequest\":{\"overall\":{\"count\":0,\"lastUpdated\":null,\"stateCount\":0,\"state\":\"OPEN\",\"details\":{\"openCount\":0,\"mergedCount\":0,\"declinedCount\":0,\"total\":0},\"open\":true},\"byInstanceType\":{}},\"build\":{\"overall\":{\"count\":0,\"lastUpdated\":null,\"failedBuildCount\":0,\"successfulBuildCount\":0,\"unknownBuildCount\":0},\"byInstanceType\":{}},\"review\":{\"overall\":{\"count\":0,\"lastUpdated\":null,\"stateCount\":0,\"state\":null,\"dueDate\":null,\"overDue\":false,\"completed\":false},\"byInstanceType\":{}},\"deployment-environment\":{\"overall\":{\"count\":0,\"lastUpdated\":null,\"topEnvironments\":[],\"showProjects\":false,\"successfulCount\":0},\"byInstanceType\":{}},\"repository\":{\"overall\":{\"count\":0,\"lastUpdated\":null},\"byInstanceType\":{}},\"branch\":{\"overall\":{\"count\":0,\"lastUpdated\":null},\"byInstanceType\":{}}}},\"isStale\":false}}",
    "customfield_12317334": null,
    "customfield_12326040": null,
    "customfield_12318148": "2026-01-30",
    "customfield_12326041": null,
    "customfield_12315950": null,
    "customfield_12310940": null,
    "customfield_12321440": null,
    "lastViewed": "2025-03-04T21:43:48.699+0000",
    "customfield_12321040": null,
    "customfield_12317340": null,
    "customfield_12323341": null,
    "customfield_12317341": null,
    "customfield_12319640": null,
    "customfield_12317342": null,
    "customfield_12313140": null,
    "customfield_12315041": {
      "self": "https://issues.stage.redhat.com/rest/api/2/customFieldOption/12953",
      "value": "Not Started",
      "id": "12953",
      "disabled": false
    },
    "priority": {
      "self": "https://issues.stage.redhat.com/rest/api/2/priority/10300",
      "iconUrl": "https://issues.stage.redhat.com/images/icons/priorities/trivial.svg",
      "name": "Undefined",
      "id": "10300"
    },
    "labels": [],
    "customfield_12311641": null,
    "customfield_12311240": null,
    "aggregatetimeoriginalestimate": null,
    "timeestimate": null,
    "versions": [],
    "customfield_12319247": null,
    "customfield_12317343": null,
    "issuelinks": [],
    "customfield_12317345": null,
    "customfield_12325240": null,
    "assignee": {
      "self": "https://issues.stage.redhat.com/rest/api/2/user?username=jwilson%40redhat.com",
      "name": "jwilson@redhat.com",
      "key": "jarodwilson",
      "emailAddress": "jarod+stage@redhat.com",
      "avatarUrls": {
        "48x48": "https://issues.stage.redhat.com/secure/useravatar?avatarId=17280",
        "24x24": "https://issues.stage.redhat.com/secure/useravatar?size=small&avatarId=17280",
        "16x16": "https://issues.stage.redhat.com/secure/useravatar?size=xsmall&avatarId=17280",
        "32x32": "https://issues.stage.redhat.com/secure/useravatar?size=medium&avatarId=17280"
      },
      "displayName": "Jarod Wilson",
      "active": true,
      "timeZone": "America/Los_Angeles"
    },
    "customfield_12317347": null,
    "customfield_12317348": null,
    "customfield_12313942": null,
    "customfield_12313941": null,
    "status": {
      "self": "https://issues.stage.redhat.com/rest/api/2/status/10016",
      "description": "Initial creation status. Implies nothing yet and should be very short lived; also can be a Bugzilla status.",
      "iconUrl": "https://issues.stage.redhat.com/images/icons/statuses/generic.png",
      "name": "New",
      "id": "10016",
      "statusCategory": {
        "self": "https://issues.stage.redhat.com/rest/api/2/statuscategory/2",
        "id": 2,
        "key": "new",
        "colorName": "default",
        "name": "To Do"
      }
    },
    "components": [
      {
        "self": "https://issues.stage.redhat.com/rest/api/2/component/12370079",
        "id": "12370079",
        "name": "kernel / Other",
        "description": " Other"
      }
    ],
    "customfield_12320841": null,
    "customfield_12314040": null,
    "customfield_12320844": null,
    "archiveddate": null,
    "customfield_12320842": null,
    "customfield_12310243": null,
    "aggregatetimeestimate": null,
    "customfield_12317278": null,
    "customfield_12317313": null,
    "customfield_12316348": null,
    "customfield_12321540": null,
    "customfield_12323840": null,
    "customfield_12325740": null,
    "creator": {
      "self": "https://issues.stage.redhat.com/rest/api/2/user?username=ehadley",
      "name": "ehadley",
      "key": "ehadley",
      "emailAddress": "ehadley+stage@redhat.com",
      "avatarUrls": {
        "48x48": "https://issues.stage.redhat.com/secure/useravatar?ownerId=ehadley&avatarId=39162",
        "24x24": "https://issues.stage.redhat.com/secure/useravatar?size=small&ownerId=ehadley&avatarId=39162",
        "16x16": "https://issues.stage.redhat.com/secure/useravatar?size=xsmall&ownerId=ehadley&avatarId=39162",
        "32x32": "https://issues.stage.redhat.com/secure/useravatar?size=medium&ownerId=ehadley&avatarId=39162"
      },
      "displayName": "Eric Hadley",
      "active": true,
      "timeZone": "GMT"
    },
    "customfield_12321541": null,
    "subtasks": [],
    "customfield_12321140": null,
    "customfield_12319740": null,
    "customfield_12323440": null,
    "customfield_12320851": null,
    "customfield_12315141": {
      "self": "https://issues.stage.redhat.com/rest/api/2/user?username=kernel-mgr",
      "name": "kernel-mgr",
      "key": "kernel-mgr",
      "emailAddress": "kernel-mgr@redhat.com",
      "avatarUrls": {
        "48x48": "https://www.gravatar.com/avatar/c8dff0def69aadbb46f9e19222f77075?d=mm&s=48",
        "24x24": "https://www.gravatar.com/avatar/c8dff0def69aadbb46f9e19222f77075?d=mm&s=24",
        "16x16": "https://www.gravatar.com/avatar/c8dff0def69aadbb46f9e19222f77075?d=mm&s=16",
        "32x32": "https://www.gravatar.com/avatar/c8dff0def69aadbb46f9e19222f77075?d=mm&s=32"
      },
      "displayName": "kernel-mgr",
      "active": true,
      "timeZone": "GMT"
    },
    "customfield_12320850": null,
    "reporter": {
      "self": "https://issues.stage.redhat.com/rest/api/2/user?username=ehadley",
      "name": "ehadley",
      "key": "ehadley",
      "emailAddress": "ehadley+stage@redhat.com",
      "avatarUrls": {
        "48x48": "https://issues.stage.redhat.com/secure/useravatar?ownerId=ehadley&avatarId=39162",
        "24x24": "https://issues.stage.redhat.com/secure/useravatar?size=small&ownerId=ehadley&avatarId=39162",
        "16x16": "https://issues.stage.redhat.com/secure/useravatar?size=xsmall&ownerId=ehadley&avatarId=39162",
        "32x32": "https://issues.stage.redhat.com/secure/useravatar?size=medium&ownerId=ehadley&avatarId=39162"
      },
      "displayName": "Eric Hadley",
      "active": true,
      "timeZone": "GMT"
    },
    "aggregateprogress": {
      "progress": 0,
      "total": 0
    },
    "customfield_12315542": null,
    "customfield_12315948": {
      "self": "https://issues.stage.redhat.com/rest/api/2/user?username=inactive-user",
      "name": "inactive-user",
      "key": "JIRAUSER206778",
      "emailAddress": "inactive-user@redhat.com",
      "avatarUrls": {
        "48x48": "https://www.gravatar.com/avatar/35d1844c55d5f8ac815a2ec1d8a84d7f?d=mm&s=48",
        "24x24": "https://www.gravatar.com/avatar/35d1844c55d5f8ac815a2ec1d8a84d7f?d=mm&s=24",
        "16x16": "https://www.gravatar.com/avatar/35d1844c55d5f8ac815a2ec1d8a84d7f?d=mm&s=16",
        "32x32": "https://www.gravatar.com/avatar/35d1844c55d5f8ac815a2ec1d8a84d7f?d=mm&s=32"
      },
      "displayName": "inactive-user",
      "active": true,
      "timeZone": "GMT"
    },
    "customfield_12313240": null,
    "customfield_12319742": null,
    "progress": {
      "progress": 0,
      "total": 0
    },
    "customfield_12323040": null,
    "votes": {
      "self": "https://issues.stage.redhat.com/rest/api/2/issue/RHEL-59973/votes",
      "votes": 0,
      "hasVoted": false
    },
    "customfield_12319743": null,
    "worklog": {
      "startAt": 0,
      "maxResults": 20,
      "total": 0,
      "worklogs": []
    },
    "archivedby": null,
    "customfield_12315940": null,
    "customfield_12317843": null,
    "customfield_12325158": null,
    "issuetype": {
      "self": "https://issues.stage.redhat.com/rest/api/2/issuetype/17",
      "id": "17",
      "description": "Created by Jira Software - do not edit or delete. Issue type for a user story.",
      "iconUrl": "https://issues.stage.redhat.com/secure/viewavatar?size=xsmall&avatarId=13275&avatarType=issuetype",
      "name": "Story",
      "subtask": false,
      "avatarId": 13275
    },
    "customfield_12325157": null,
    "customfield_12317370": null,
    "customfield_12325159": null,
    "customfield_12317372": null,
    "customfield_12318341": null,
    "customfield_12325154": null,
    "customfield_12325153": null,
    "customfield_12317374": null,
    "customfield_12325156": null,
    "timespent": null,
    "customfield_12325155": null,
    "customfield_12320940": null,
    "project": {
      "self": "https://issues.stage.redhat.com/rest/api/2/project/12332745",
      "id": "12332745",
      "key": "RHEL",
      "name": "RHEL",
      "projectTypeKey": "software",
      "avatarUrls": {
        "48x48": "https://issues.stage.redhat.com/secure/projectavatar?pid=12332745&avatarId=17271",
        "24x24": "https://issues.stage.redhat.com/secure/projectavatar?size=small&pid=12332745&avatarId=17271",
        "16x16": "https://issues.stage.redhat.com/secure/projectavatar?size=xsmall&pid=12332745&avatarId=17271",
        "32x32": "https://issues.stage.redhat.com/secure/projectavatar?size=medium&pid=12332745&avatarId=17271"
      },
      "projectCategory": {
        "self": "https://issues.stage.redhat.com/rest/api/2/projectCategory/10630",
        "id": "10630",
        "description": "These are projects which will be migrated to Red hat Jira (issues.redhat.com)",
        "name": "Product Development-RHEL"
      }
    },
    "customfield_12320944": null,
    "aggregatetimespent": null,
    "customfield_12310220": null,
    "resolutiondate": null,
    "customfield_12325150": null,
    "customfield_12318740": null,
    "workratio": -1,
    "customfield_12325152": null,
    "customfield_12316840": null,
    "customfield_12317379": null,
    "customfield_12325151": null,
    "customfield_12316841": null,
    "customfield_12317259": null,
    "customfield_12319040": null,
    "customfield_12325047": null,
    "watches": {
      "self": "https://issues.stage.redhat.com/rest/api/2/issue/RHEL-59973/watchers",
      "watchCount": 1,
      "isWatching": false
    },
    "customfield_12325044": null,
    "customfield_12319286": {
      "self": "https://issues.stage.redhat.com/rest/api/2/customFieldOption/30765",
      "value": "Unspecified",
      "id": "30765",
      "disabled": false
    },
    "customfield_12325043": null,
    "customfield_12325046": null,
    "created": "2025-01-31T17:46:22.584+0000",
    "customfield_12321240": null,
    "customfield_12325045": null,
    "customfield_12323940": null,
    "customfield_12320948": {
      "self": "https://issues.stage.redhat.com/rest/api/2/customFieldOption/27850",
      "value": "Needs Review",
      "id": "27850",
      "disabled": false
    },
    "customfield_12320947": [
      {
        "self": "https://issues.stage.redhat.com/rest/api/2/customFieldOption/27714",
        "value": "Unclassified",
        "id": "27714",
        "disabled": false
      }
    ],
    "customfield_12320946": null,
    "customfield_12325040": [],
    "customfield_12325160": null,
    "customfield_12325042": null,
    "customfield_12325041": null,
    "updated": "2025-03-04T19:54:19.173+0000",
    "customfield_12311840": null,
    "customfield_12322143": null,
    "customfield_12319252": [
      {
        "self": "https://issues.stage.redhat.com/rest/api/2/customFieldOption/41751",
        "value": "Merge Request finished CKI testing",
        "id": "45451",
        "disabled": false
      }
    ],
    "customfield_12322140": null,
    "customfield_12316142": null,
    "customfield_12322141": null,
    "customfield_12322142": null,
    "timeoriginalestimate": null,
    "description": "h4. Goal\r\n * < Goal-based statement, with context>\r\n ** *For example:* _As a <user/actor>, I Want <to achieve some goal>, so that <some reason/context>._\r\n\r\nh4. Acceptance criteria\r\n\r\nA list of verification conditions, successful functional tests, or expected outcomes in order to declare this story/task successfully completed.\r\n * Verify X\r\n * Verify Y\r\n * Verify Z",
    "customfield_12322148": null,
    "timetracking": {},
    "security": {
      "self": "https://issues.stage.redhat.com/rest/api/2/securitylevel/11694",
      "id": "11694",
      "description": "Restricts access to Red Hat employees who are approved to view product development information",
      "name": "Red Hat Engineering Authorized"
    },
    "attachment": [],
    "customfield_12326340": null,
    "customfield_12316542": {
      "self": "https://issues.stage.redhat.com/rest/api/2/customFieldOption/14655",
      "value": "False",
      "id": "14655",
      "disabled": false
    },
    "customfield_12324041": null,
    "customfield_12316543": {
      "self": "https://issues.stage.redhat.com/rest/api/2/customFieldOption/14657",
      "value": "False",
      "id": "14657",
      "disabled": false
    },
    "customfield_12324040": null,
    "customfield_12316544": "None",
    "customfield_12310840": "9223372036854775807",
    "summary": "Test Issue for Release Milestone Checkboxes",
    "customfield_12323640": null,
    "customfield_12325147": null,
    "customfield_12325146": null,
    "customfield_12323642": null,
    "customfield_12325149": null,
    "customfield_12317360": null,
    "customfield_12323641": null,
    "customfield_12325148": null,
    "customfield_12325143": null,
    "customfield_12318450": null,
    "customfield_12325142": null,
    "customfield_12323242": null,
    "customfield_12325145": null,
    "customfield_12325144": null,
    "customfield_12313040": null,
    "customfield_12321740": null,
    "customfield_12323644": null,
    "customfield_12323643": null,
    "customfield_12323646": null,
    "customfield_12323645": null,
    "environment": null,
    "customfield_12315740": null,
    "duedate": null,
    "customfield_12311140": null,
    "customfield_12319940": null,
    "customfield_12319269": null,
    "customfield_12317366": null,
    "comment": {
      "comments": [
        {
          "self": "https://issues.stage.redhat.com/rest/api/2/issue/16352717/comment/25583733",
          "id": "25583733",
          "author": {
            "self": "https://issues.stage.redhat.com/rest/api/2/user?username=autobot-jira-api",
            "name": "autobot-jira-api",
            "key": "autobot-jira-api",
            "emailAddress": "pme-bot@redhat.com",
            "avatarUrls": {
              "48x48": "https://www.gravatar.com/avatar/573dcb2fa1491b2623023b4ce48e2ea2?d=mm&s=48",
              "24x24": "https://www.gravatar.com/avatar/573dcb2fa1491b2623023b4ce48e2ea2?d=mm&s=24",
              "16x16": "https://www.gravatar.com/avatar/573dcb2fa1491b2623023b4ce48e2ea2?d=mm&s=16",
              "32x32": "https://www.gravatar.com/avatar/573dcb2fa1491b2623023b4ce48e2ea2?d=mm&s=32"
            },
            "displayName": "pme bot",
            "active": true,
            "timeZone": "GMT"
          },
          "body": "\n                    h4. Found errors for component “test” while setting the following fields according to [ownership mapping information in the source repository|https://gitlab.cee.redhat.com/bugzilla-data/components/-/blob/main/RHEL9/test]:\n\n                    {quote}\n                    * Assignee: user “rhn-engineering-agk” found inactive in Jira based on the email address “agk@redhat.com” provided in the repository.\n* QA Contact: user “rhn-engineering-agk” found inactive in Jira based on the email address “agk@redhat.com” provided in the repository.\n* Pool Team: no matching Jira value found for value “sst_platform_storage_rhel_9” provided in the repository.\n* Developer: user “rhn-engineering-agk” found inactive in Jira based on the email address “agk@redhat.com”. \n\n                    {quote}\n                ",
          "updateAuthor": {
            "self": "https://issues.stage.redhat.com/rest/api/2/user?username=autobot-jira-api",
            "name": "autobot-jira-api",
            "key": "autobot-jira-api",
            "emailAddress": "pme-bot@redhat.com",
            "avatarUrls": {
              "48x48": "https://www.gravatar.com/avatar/573dcb2fa1491b2623023b4ce48e2ea2?d=mm&s=48",
              "24x24": "https://www.gravatar.com/avatar/573dcb2fa1491b2623023b4ce48e2ea2?d=mm&s=24",
              "16x16": "https://www.gravatar.com/avatar/573dcb2fa1491b2623023b4ce48e2ea2?d=mm&s=16",
              "32x32": "https://www.gravatar.com/avatar/573dcb2fa1491b2623023b4ce48e2ea2?d=mm&s=32"
            },
            "displayName": "pme bot",
            "active": true,
            "timeZone": "GMT"
          },
          "created": "2025-01-31T17:46:35.214+0000",
          "updated": "2025-01-31T17:46:35.214+0000",
          "visibility": {
            "type": "group",
            "value": "Red Hat Employee"
          }
        }
      ],
      "maxResults": 1,
      "total": 1,
      "startAt": 0
    },
    "customfield_12325141": null,
    "customfield_12325140": null,
    "customfield_12310213": null,
    "customfield_12311940": "2|i28b27:"
  }
}
