{
  "expand": "operations,versionedRepresentations,editmeta,changelog,renderedFields",
  "id": "16160998",
  "self": "https://issues.redhat.com/rest/api/2/issue/16160998",
  "key": "RHEL-50200",
  "fields": {
    "issuetype": {
      "self": "https://issues.redhat.com/rest/api/2/issuetype/1",
      "id": "1",
      "description": "A problem that impairs or prevents the functions of the product.",
      "iconUrl": "https://issues.redhat.com/secure/viewavatar?size=xsmall&avatarId=13263&avatarType=issuetype",
      "name": "Bug",
      "subtask": false,
      "avatarId": 13263
    },
    "customfield_12318141": null,
    "customfield_12322640": null,
    "components": [
      {
        "self": "https://issues.redhat.com/rest/api/2/component/12369751",
        "id": "12369751",
        "name": "kernel",
        "description": " The Linux kernel (the core of the Linux operating system)\n"
      }
    ],
    "project": {
      "self": "https://issues.redhat.com/rest/api/2/project/12332745",
      "id": "12332745",
      "key": "RHEL",
      "name": "RHEL",
      "projectTypeKey": "software",
      "avatarUrls": {
        "48x48": "https://issues.redhat.com/secure/projectavatar?pid=12332745&avatarId=17271",
        "24x24": "https://issues.redhat.com/secure/projectavatar?size=small&pid=12332745&avatarId=17271",
        "16x16": "https://issues.redhat.com/secure/projectavatar?size=xsmall&pid=12332745&avatarId=17271",
        "32x32": "https://issues.redhat.com/secure/projectavatar?size=medium&pid=12332745&avatarId=17271"
      },
      "projectCategory": {
        "self": "https://issues.redhat.com/rest/api/2/projectCategory/10630",
        "id": "10630",
        "description": "These are projects which will be migrated to Red hat Jira (issues.redhat.com)",
        "name": "Product Development-RHEL"
      }
    },
    "fixVersions": [
      {
        "self": "https://issues.redhat.com/rest/api/2/version/12397354",
        "id": "12397354",
        "description": "PPSync [release:1624]",
        "name": "rhel-9.0.0.z",
        "archived": false,
        "released": true
      }
    ],
    "resolution": null,
    "customfield_12324041": "# lead stream commit hashes to backport\nac01049d618df06b79e7b184ffd11c419ed531c7 fcfad23917cee945fce060cc16d9a49ca9a13b45",
    "customfield_12317259": [
      {
        "self": "https://issues.redhat.com/rest/api/2/customFieldOption/36050",
        "value": "sst_se_kernel",
        "id": "36050",
        "disabled": false
      }
    ],
    "summary": "CVE-2024-41091 kernel: mlx5_core short frame denial of service [rhel-9.0.0.z]",
    "customfield_12321540": null,
    "customfield_12321040": null,
    "subtasks": [],
    "customfield_12323341": null,
    "customfield_12315141": {
      "self": "https://issues.redhat.com/rest/api/2/user?username=kernel-mgr",
      "name": "kernel-mgr",
      "key": "kernel-mgr",
      "emailAddress": "kernel-mgr@redhat.com",
      "avatarUrls": {
        "48x48": "https://www.gravatar.com/avatar/c8dff0def69aadbb46f9e19222f77075?d=mm&s=48",
        "24x24": "https://www.gravatar.com/avatar/c8dff0def69aadbb46f9e19222f77075?d=mm&s=24",
        "16x16": "https://www.gravatar.com/avatar/c8dff0def69aadbb46f9e19222f77075?d=mm&s=16",
        "32x32": "https://www.gravatar.com/avatar/c8dff0def69aadbb46f9e19222f77075?d=mm&s=32"
      },
      "displayName": "kernel-mgr",
      "active": true,
      "timeZone": "GMT"
    },
    "reporter": {
      "self": "https://issues.redhat.com/rest/api/2/user?username=mcascell%40redhat.com",
      "name": "mcascell@redhat.com",
      "key": "mcascell",
      "emailAddress": "mcascell@redhat.com",
      "avatarUrls": {
        "48x48": "https://issues.redhat.com/secure/useravatar?avatarId=17284",
        "24x24": "https://issues.redhat.com/secure/useravatar?size=small&avatarId=17284",
        "16x16": "https://issues.redhat.com/secure/useravatar?size=xsmall&avatarId=17284",
        "32x32": "https://issues.redhat.com/secure/useravatar?size=medium&avatarId=17284"
      },
      "displayName": "Mauro Matteo Cascella",
      "active": true,
      "timeZone": "Europe/Rome"
    },
    "priority": {
      "self": "https://issues.redhat.com/rest/api/2/priority/3",
      "iconUrl": "https://issues.redhat.com/images/icons/priorities/major.svg",
      "name": "Major",
      "id": "3"
    },
    "customfield_12321740": "The following Merge Request has pipeline job artifacts available:\n\nTitle: CVE-2024-41091 kernel: mlx5_core short frame denial of service  [rhel-9.0.z]\nMR: https://gitlab.com/redhat/rhel/src/kernel/rhel-9/-/merge_requests/2011\nMR Pipeline: https://gitlab.com/redhat/rhel/src/kernel/rhel-9/-/pipelines/1387154615\n\nThe Repo URLs are *not* accessible from a web browser! They only function as a dnf or yum baseurl.\n\nArtifacts expire six weeks after creation. If artifacts are needed after that time please rerun the pipeline by visiting the MR's 'Pipelines' tab and clicking the 'Run pipeline' button.\n\n----------------------------------------\n\nDownstream Pipeline Name: RHEL (rhel9_merge_request)\nDataWarehouse Checkout: https://datawarehouse.cki-project.org/kcidb/checkouts/redhat:1387154646\n\n5.14.0-70.109.1.2011_1387154615.el9_0.s390x:\nArtifacts (RPMs): https://artifacts.internal.cki-project.org/arr-cki-prod-internal-artifacts/index.html?prefix=internal-artifacts/1387154646/publish_s390x/7423373812/artifacts/repo/5.14.0-70.109.1.2011_1387154615.el9_0.s390x/\nRepo URL: https://artifacts.internal.cki-project.org/arr-cki-prod-internal-artifacts/internal-artifacts/1387154646/publish_s390x/7423373812/artifacts/repo/5.14.0-70.109.1.2011_1387154615.el9_0.s390x/\n\n5.14.0-70.109.1.2011_1387154615.el9_0.aarch64:\nArtifacts (RPMs): https://artifacts.internal.cki-project.org/arr-cki-prod-internal-artifacts/index.html?prefix=internal-artifacts/1387154646/publish_aarch64/7423373808/artifacts/repo/5.14.0-70.109.1.2011_1387154615.el9_0.aarch64/\nRepo URL: https://artifacts.internal.cki-project.org/arr-cki-prod-internal-artifacts/internal-artifacts/1387154646/publish_aarch64/7423373808/artifacts/repo/5.14.0-70.109.1.2011_1387154615.el9_0.aarch64/\n\n5.14.0-70.109.1.2011_1387154615.el9_0.ppc64le:\nArtifacts (RPMs): https://artifacts.internal.cki-project.org/arr-cki-prod-internal-artifacts/index.html?prefix=internal-artifacts/1387154646/publish_ppc64le/7423373795/artifacts/repo/5.14.0-70.109.1.2011_1387154615.el9_0.ppc64le/\nRepo URL: https://artifacts.internal.cki-project.org/arr-cki-prod-internal-artifacts/internal-artifacts/1387154646/publish_ppc64le/7423373795/artifacts/repo/5.14.0-70.109.1.2011_1387154615.el9_0.ppc64le/\n\n5.14.0-70.109.1.2011_1387154615.el9_0.x86_64-debug:\nArtifacts (RPMs): https://artifacts.internal.cki-project.org/arr-cki-prod-internal-artifacts/index.html?prefix=internal-artifacts/1387154646/publish_x86_64_debug/7423373792/artifacts/repo/5.14.0-70.109.1.2011_1387154615.el9_0.x86_64/\nRepo URL: https://artifacts.internal.cki-project.org/arr-cki-prod-internal-artifacts/internal-artifacts/1387154646/publish_x86_64_debug/7423373792/artifacts/repo/5.14.0-70.109.1.2011_1387154615.el9_0.x86_64/\n\n5.14.0-70.109.1.2011_1387154615.el9_0.x86_64:\nArtifacts (RPMs): https://artifacts.internal.cki-project.org/arr-cki-prod-internal-artifacts/index.html?prefix=internal-artifacts/1387154646/publish_x86_64/7423373789/artifacts/repo/5.14.0-70.109.1.2011_1387154615.el9_0.x86_64/\nRepo URL: https://artifacts.internal.cki-project.org/arr-cki-prod-internal-artifacts/internal-artifacts/1387154646/publish_x86_64/7423373789/artifacts/repo/5.14.0-70.109.1.2011_1387154615.el9_0.x86_64/\n\n----------------------------------------\n\nDownstream Pipeline Name: REALTIME (rhel9_realtime_check_merge_request)\nDataWarehouse Checkout: https://datawarehouse.cki-project.org/kcidb/checkouts/redhat:1387154679\n\n5.14.0-70.109.1.rt21.181.2011_1387154615.el9_0.x86_64-debug:\nArtifacts (RPMs): https://artifacts.internal.cki-project.org/arr-cki-prod-internal-artifacts/index.html?prefix=internal-artifacts/1387154679/publish_x86_64_debug/7423551546/artifacts/repo/5.14.0-70.109.1.rt21.181.2011_1387154615.el9_0.x86_64/\nRepo URL: https://artifacts.internal.cki-project.org/arr-cki-prod-internal-artifacts/internal-artifacts/1387154679/publish_x86_64_debug/7423551546/artifacts/repo/5.14.0-70.109.1.rt21.181.2011_1387154615.el9_0.x86_64/\n\n5.14.0-70.109.1.rt21.181.2011_1387154615.el9_0.x86_64:\nArtifacts (RPMs): https://artifacts.internal.cki-project.org/arr-cki-prod-internal-artifacts/index.html?prefix=internal-artifacts/1387154679/publish_x86_64/7423373982/artifacts/repo/5.14.0-70.109.1.rt21.181.2011_1387154615.el9_0.x86_64/\nRepo URL: https://artifacts.internal.cki-project.org/arr-cki-prod-internal-artifacts/internal-artifacts/1387154679/publish_x86_64/7423373982/artifacts/repo/5.14.0-70.109.1.rt21.181.2011_1387154615.el9_0.x86_64/\n\n----------------------------------------\n\nUpdated 2024-07-25 03:54 UTC by buglinker:\n- KWF FAQ: https://red.ht/kernel_workflow_doc\n- Slack #team-kernel-workflow: https://redhat-internal.slack.com/archives/C04LRUPMJQ5\n- Source: https://gitlab.com/cki-project/kernel-workflow/-/blob/main/webhook/buglinker.py\n- Documentation: https://gitlab.com/cki-project/kernel-workflow/-/blob/main/docs/README.buglinker.md\n- Report an issue: https://gitlab.com/cki-project/kernel-workflow/-/issues/new?issue%5Btitle%5D=buglinker%20webhook%20issue\n",
    "labels": [
      "CVE-2024-41091",
      "Security",
      "SecurityTracking",
      "flaw:bz#2299336",
      "flawuuid:e64635a3-bd4b-47b6-a115-9a77ac6884ea",
      "pscomponent:kernel"
    ],
    "customfield_12315948": {
      "self": "https://issues.redhat.com/rest/api/2/user?username=rhn-support-rbergant",
      "name": "rhn-support-rbergant",
      "key": "rhn-support-rbergant",
      "emailAddress": "rbergant@redhat.com",
      "avatarUrls": {
        "48x48": "https://www.gravatar.com/avatar/4d5f79a7df702168d276f8347a21de3e?d=mm&s=48",
        "24x24": "https://www.gravatar.com/avatar/4d5f79a7df702168d276f8347a21de3e?d=mm&s=24",
        "16x16": "https://www.gravatar.com/avatar/4d5f79a7df702168d276f8347a21de3e?d=mm&s=16",
        "32x32": "https://www.gravatar.com/avatar/4d5f79a7df702168d276f8347a21de3e?d=mm&s=32"
      },
      "displayName": "Roberto Bergantinos Corpas",
      "active": true,
      "timeZone": "GMT"
    },
    "versions": [
      {
        "self": "https://issues.redhat.com/rest/api/2/version/12397354",
        "id": "12397354",
        "description": "PPSync [release:1624]",
        "name": "rhel-9.0.0.z",
        "archived": false,
        "released": true
      }
    ],
    "issuelinks": [
      {
        "id": "15910469",
        "self": "https://issues.redhat.com/rest/api/2/issueLink/15910469",
        "type": {
          "id": "12311220",
          "name": "Depend",
          "inward": "is depended on by",
          "outward": "depends on",
          "self": "https://issues.redhat.com/rest/api/2/issueLinkType/12311220"
        },
        "inwardIssue": {
          "id": "16161002",
          "key": "RHEL-50204",
          "self": "https://issues.redhat.com/rest/api/2/issue/16161002",
          "fields": {
            "summary": "CVE-2024-41091 kernel-rt: mlx5_core short frame denial of service [rhel-9.0.0.z]",
            "status": {
              "self": "https://issues.redhat.com/rest/api/2/status/10018",
              "description": "Work has started",
              "iconUrl": "https://issues.redhat.com/images/icons/status_generic.gif",
              "name": "In Progress",
              "id": "10018",
              "statusCategory": {
                "self": "https://issues.redhat.com/rest/api/2/statuscategory/4",
                "id": 4,
                "key": "indeterminate",
                "colorName": "inprogress",
                "name": "In Progress"
              }
            },
            "priority": {
              "self": "https://issues.redhat.com/rest/api/2/priority/3",
              "iconUrl": "https://issues.redhat.com/images/icons/priorities/major.svg",
              "name": "Major",
              "id": "3"
            },
            "issuetype": {
              "self": "https://issues.redhat.com/rest/api/2/issuetype/1",
              "id": "1",
              "description": "A problem that impairs or prevents the functions of the product.",
              "iconUrl": "https://issues.redhat.com/secure/viewavatar?size=xsmall&avatarId=13263&avatarType=issuetype",
              "name": "Bug",
              "subtask": false,
              "avatarId": 13263
            }
          }
        }
      }
    ],
    "customfield_12319743": null,
    "assignee": {
      "self": "https://issues.redhat.com/rest/api/2/user?username=rhn-support-brdeoliv",
      "name": "rhn-support-brdeoliv",
      "key": "JIRAUSER229707",
      "emailAddress": "bmeneg@redhat.com",
      "avatarUrls": {
        "48x48": "https://issues.redhat.com/secure/useravatar?ownerId=JIRAUSER229707&avatarId=52665",
        "24x24": "https://issues.redhat.com/secure/useravatar?size=small&ownerId=JIRAUSER229707&avatarId=52665",
        "16x16": "https://issues.redhat.com/secure/useravatar?size=xsmall&ownerId=JIRAUSER229707&avatarId=52665",
        "32x32": "https://issues.redhat.com/secure/useravatar?size=medium&ownerId=JIRAUSER229707&avatarId=52665"
      },
      "displayName": "Bruno Meneguele",
      "active": true,
      "timeZone": "America/Sao_Paulo"
    },
    "updated": "2024-07-25T08:45:11.000+0000",
    "status": {
      "self": "https://issues.redhat.com/rest/api/2/status/10018",
      "description": "Work has started",
      "iconUrl": "https://issues.redhat.com/images/icons/status_generic.gif",
      "name": "In Progress",
      "id": "10018",
      "statusCategory": {
        "self": "https://issues.redhat.com/rest/api/2/statuscategory/4",
        "id": 4,
        "key": "indeterminate",
        "colorName": "inprogress",
        "name": "In Progress"
      }
    }
  }
}
