{
  "expand": "operations,versionedRepresentations,editmeta,changelog,renderedFields",
  "id": "16152348",
  "self": "https://issues.redhat.com/rest/api/2/issue/16152348",
  "key": "RHEL-49673",
  "fields": {
    "issuetype": {
      "self": "https://issues.redhat.com/rest/api/2/issuetype/3",
      "id": "3",
      "description": "Represents a small unit of work that is not end-user facing.",
      "iconUrl": "https://issues.redhat.com/secure/viewavatar?size=xsmall&avatarId=13278&avatarType=issuetype",
      "name": "Task",
      "subtask": false,
      "avatarId": 13278
    },
    "customfield_12318141": null,
    "customfield_12322640": null,
    "components": [
      {
        "self": "https://issues.redhat.com/rest/api/2/component/12370375",
        "id": "12370375",
        "name": "kernel-rt"
      }
    ],
    "project": {
      "self": "https://issues.redhat.com/rest/api/2/project/12332745",
      "id": "12332745",
      "key": "RHEL",
      "name": "RHEL",
      "projectTypeKey": "software",
      "avatarUrls": {
        "48x48": "https://issues.redhat.com/secure/projectavatar?pid=12332745&avatarId=17271",
        "24x24": "https://issues.redhat.com/secure/projectavatar?size=small&pid=12332745&avatarId=17271",
        "16x16": "https://issues.redhat.com/secure/projectavatar?size=xsmall&pid=12332745&avatarId=17271",
        "32x32": "https://issues.redhat.com/secure/projectavatar?size=medium&pid=12332745&avatarId=17271"
      },
      "projectCategory": {
        "self": "https://issues.redhat.com/rest/api/2/projectCategory/10630",
        "id": "10630",
        "description": "These are projects which will be migrated to Red hat Jira (issues.redhat.com)",
        "name": "Product Development-RHEL"
      }
    },
    "fixVersions": [
      {
        "self": "https://issues.redhat.com/rest/api/2/version/12406018",
        "id": "12406018",
        "description": "PPSync [release:2456]",
        "name": "rhel-9.2.0.z",
        "archived": false,
        "released": true
      }
    ],
    "resolution": {
      "self": "https://issues.redhat.com/rest/api/2/resolution/1",
      "id": "1",
      "description": "This issue is closed, and complete.",
      "name": "Done"
    },
    "customfield_12324041": null,
    "customfield_12317259": [
      {
        "self": "https://issues.redhat.com/rest/api/2/customFieldOption/18483",
        "value": "sst_kernel_security",
        "id": "18483",
        "disabled": false
      }
    ],
    "summary": "kernel variant testing POC [KWF:kernel-rt]",
    "customfield_12321540": null,
    "customfield_12321040": null,
    "subtasks": [],
    "customfield_12323341": null,
    "customfield_12315141": null,
    "reporter": {
      "self": "https://issues.redhat.com/rest/api/2/user?username=rhel-process-autobot",
      "name": "rhel-process-autobot",
      "key": "rhel-process-autobot",
      "emailAddress": "rhel-process-autobot@redhat.com",
      "avatarUrls": {
        "48x48": "https://issues.redhat.com/secure/useravatar?ownerId=rhel-process-autobot&avatarId=27863",
        "24x24": "https://issues.redhat.com/secure/useravatar?size=small&ownerId=rhel-process-autobot&avatarId=27863",
        "16x16": "https://issues.redhat.com/secure/useravatar?size=xsmall&ownerId=rhel-process-autobot&avatarId=27863",
        "32x32": "https://issues.redhat.com/secure/useravatar?size=medium&ownerId=rhel-process-autobot&avatarId=27863"
      },
      "displayName": "RHEL Jira bot",
      "active": true,
      "timeZone": "GMT"
    },
    "priority": {
      "self": "https://issues.redhat.com/rest/api/2/priority/10300",
      "iconUrl": "https://issues.redhat.com/images/icons/priorities/trivial.svg",
      "name": "Undefined",
      "id": "10300"
    },
    "customfield_12321740": null,
    "labels": ["KWF:TestingTask"],
    "customfield_12315948": null,
    "versions": [],
    "issuelinks": [
      {
        "id": "15900770",
        "self": "https://issues.redhat.com/rest/api/2/issueLink/15900770",
        "type": {
          "id": "12310720",
          "name": "Blocks",
          "inward": "is blocked by",
          "outward": "blocks",
          "self": "https://issues.redhat.com/rest/api/2/issueLinkType/12310720"
        },
        "outwardIssue": {
          "id": "15581865",
          "key": "RHEL-14726",
          "self": "https://issues.redhat.com/rest/api/2/issue/15581865",
          "fields": {
            "summary": "kernel variant testing POC",
            "status": {
              "self": "https://issues.redhat.com/rest/api/2/status/10018",
              "description": "Work has started",
              "iconUrl": "https://issues.redhat.com/images/icons/status_generic.gif",
              "name": "In Progress",
              "id": "10018",
              "statusCategory": {
                "self": "https://issues.redhat.com/rest/api/2/statuscategory/4",
                "id": 4,
                "key": "indeterminate",
                "colorName": "inprogress",
                "name": "In Progress"
              }
            },
            "priority": {
              "self": "https://issues.redhat.com/rest/api/2/priority/10300",
              "iconUrl": "https://issues.redhat.com/images/icons/priorities/trivial.svg",
              "name": "Undefined",
              "id": "10300"
            },
            "issuetype": {
              "self": "https://issues.redhat.com/rest/api/2/issuetype/1",
              "id": "1",
              "description": "A problem that impairs or prevents the functions of the product.",
              "iconUrl": "https://issues.redhat.com/secure/viewavatar?size=xsmall&avatarId=13263&avatarType=issuetype",
              "name": "Bug",
              "subtask": false,
              "avatarId": 13263
            }
          }
        }
      }
    ],
    "customfield_12319743": null,
    "assignee": {
      "self": "https://issues.redhat.com/rest/api/2/user?username=mstowell%40redhat.com",
      "name": "mstowell@redhat.com",
      "key": "mstowell",
      "emailAddress": "mstowell@redhat.com",
      "avatarUrls": {
        "48x48": "https://issues.redhat.com/secure/useravatar?ownerId=mstowell&avatarId=26905",
        "24x24": "https://issues.redhat.com/secure/useravatar?size=small&ownerId=mstowell&avatarId=26905",
        "16x16": "https://issues.redhat.com/secure/useravatar?size=xsmall&ownerId=mstowell&avatarId=26905",
        "32x32": "https://issues.redhat.com/secure/useravatar?size=medium&ownerId=mstowell&avatarId=26905"
      },
      "displayName": "Mike Stowell",
      "active": true,
      "timeZone": "America/New_York"
    },
    "updated": "2024-07-18T15:18:28.000+0000",
    "status": {
      "self": "https://issues.redhat.com/rest/api/2/status/6",
      "description": "The issue is closed. See the resolution for context regarding why (for example Done, Abandoned, Duplicate, etc)",
      "iconUrl": "https://issues.redhat.com/images/icons/statuses/closed.png",
      "name": "Closed",
      "id": "6",
      "statusCategory": {
        "self": "https://issues.redhat.com/rest/api/2/statuscategory/3",
        "id": 3,
        "key": "done",
        "colorName": "success",
        "name": "Done"
      }
    }
  }
}
