{
  "expand": "operations,versionedRepresentations,editmeta,changelog,renderedFields",
  "id": "16144145",
  "self": "https://issues.redhat.com/rest/api/2/issue/16144145",
  "key": "RHEL-48706",
  "fields": {
    "issuetype": {
      "self": "https://issues.redhat.com/rest/api/2/issuetype/1",
      "id": "1",
      "description": "A problem that impairs or prevents the functions of the product.",
      "iconUrl": "https://issues.redhat.com/secure/viewavatar?size=xsmall&avatarId=13263&avatarType=issuetype",
      "name": "Bug",
      "subtask": false,
      "avatarId": 13263
    },
    "customfield_12318141": null,
    "customfield_12322640": null,
    "components": [
      {
        "self": "https://issues.redhat.com/rest/api/2/component/12369751",
        "id": "12369751",
        "name": "kernel",
        "description": " The Linux kernel (the core of the Linux operating system)\n"
      }
    ],
    "project": {
      "self": "https://issues.redhat.com/rest/api/2/project/12332745",
      "id": "12332745",
      "key": "RHEL",
      "name": "RHEL",
      "projectTypeKey": "software",
      "avatarUrls": {
        "48x48": "https://issues.redhat.com/secure/projectavatar?pid=12332745&avatarId=17271",
        "24x24": "https://issues.redhat.com/secure/projectavatar?size=small&pid=12332745&avatarId=17271",
        "16x16": "https://issues.redhat.com/secure/projectavatar?size=xsmall&pid=12332745&avatarId=17271",
        "32x32": "https://issues.redhat.com/secure/projectavatar?size=medium&pid=12332745&avatarId=17271"
      },
      "projectCategory": {
        "self": "https://issues.redhat.com/rest/api/2/projectCategory/10630",
        "id": "10630",
        "description": "These are projects which will be migrated to Red hat Jira (issues.redhat.com)",
        "name": "Product Development-RHEL"
      }
    },
    "fixVersions": [
      {
        "self": "https://issues.redhat.com/rest/api/2/version/12392169",
        "id": "12392169",
        "description": "PPSync [release:1983]",
        "name": "rhel-8.6.0.z",
        "archived": false,
        "released": true
      }
    ],
    "resolution": null,
    "customfield_12324041": "# lead stream commit hashes to backport\n664d424accbc2f16681ad0b968a39fbb1096a695 1600a75e8a309fc0005bff50f46e0540bc52febd fbc2d7c09fd3e9c03d7a089f5f7aad98c3c06b90 5824796f0091f46965aaed369d8f5754a124ec26 a215a5d20336245442240e935025d4be82a58f03 41cd88dfc670aaed7e16391641efdccf92d7b631 6a4eabd1ff0b22544ba8b9e9245c10f5a785a364 68ba8794dba0eefa65e5af3216ec2f52b3415e8e 8fc4cfa1e3ca6dde72ccf194d248b89aaf6b5030 ccc5f8fcda70436db1e41eb34218fc382255cedf 005a4e5fd1ede0791cb7fc1087d0560f222a83b5 a6614af34574b56a93729779b99efe34c730ee95 6ca13b0363ccb1d52cb1466206a7c0e17ca41527 6d12095e4f80facb39995f74b315df39a98198fe 389aa9a8be236b6f7528609a7762b420844ded34 d9e818e34e57a3642d09c34b99788ed53775539a 50368ccd254c68e7dacbea7a5c9e153a97cfce0c 8a1de18fd3b7443c47d9bc9942e6fd5fadac33cd 9cd989f03cec03d43118b37bdb6137669f0916a8 f00b1917a1fca14b95f15c5952ae4843ab3e40cb d3af87517de1af0d311b464d414359ca66beceb2 9de515e5ee911fe45b31f1eb10c0b17590dce2e7",
    "customfield_12317259": [
      {
        "self": "https://issues.redhat.com/rest/api/2/customFieldOption/15230",
        "value": "sst_kernel_maintainers",
        "id": "15230",
        "disabled": false
      }
    ],
    "summary": "CVE-2023-28746 kernel: Local information disclosure on Intel(R) Atom(R) processors [rhel-8.6.0.z]",
    "customfield_12321540": null,
    "customfield_12321040": null,
    "subtasks": [],
    "customfield_12323341": null,
    "customfield_12315141": {
      "self": "https://issues.redhat.com/rest/api/2/user?username=kernel-mgr",
      "name": "kernel-mgr",
      "key": "kernel-mgr",
      "emailAddress": "kernel-mgr@redhat.com",
      "avatarUrls": {
        "48x48": "https://www.gravatar.com/avatar/c8dff0def69aadbb46f9e19222f77075?d=mm&s=48",
        "24x24": "https://www.gravatar.com/avatar/c8dff0def69aadbb46f9e19222f77075?d=mm&s=24",
        "16x16": "https://www.gravatar.com/avatar/c8dff0def69aadbb46f9e19222f77075?d=mm&s=16",
        "32x32": "https://www.gravatar.com/avatar/c8dff0def69aadbb46f9e19222f77075?d=mm&s=32"
      },
      "displayName": "kernel-mgr",
      "active": true,
      "timeZone": "GMT"
    },
    "reporter": {
      "self": "https://issues.redhat.com/rest/api/2/user?username=allarkin",
      "name": "allarkin",
      "key": "allarkin",
      "emailAddress": "allarkin@redhat.com",
      "avatarUrls": {
        "48x48": "https://issues.redhat.com/secure/useravatar?ownerId=allarkin&avatarId=25217",
        "24x24": "https://issues.redhat.com/secure/useravatar?size=small&ownerId=allarkin&avatarId=25217",
        "16x16": "https://issues.redhat.com/secure/useravatar?size=xsmall&ownerId=allarkin&avatarId=25217",
        "32x32": "https://issues.redhat.com/secure/useravatar?size=medium&ownerId=allarkin&avatarId=25217"
      },
      "displayName": "Alexander Larkin",
      "active": true,
      "timeZone": "Asia/Jerusalem"
    },
    "priority": {
      "self": "https://issues.redhat.com/rest/api/2/priority/10200",
      "iconUrl": "https://issues.redhat.com/images/icons/priorities/medium.svg",
      "name": "Normal",
      "id": "10200"
    },
    "customfield_12321740": null,
    "labels": [
      "CVE-2023-28746",
      "Security",
      "SecurityTracking",
      "compliance-priority",
      "flaw:bz#2270700",
      "pscomponent:kernel"
    ],
    "customfield_12315948": {
      "self": "https://issues.redhat.com/rest/api/2/user?username=kernel-qe-hw",
      "name": "kernel-qe-hw",
      "key": "JIRAUSER195524",
      "emailAddress": "kernel-qe-hw@redhat.com",
      "avatarUrls": {
        "48x48": "https://www.gravatar.com/avatar/edfaea4e309481d141ca01d1119a04b7?d=mm&s=48",
        "24x24": "https://www.gravatar.com/avatar/edfaea4e309481d141ca01d1119a04b7?d=mm&s=24",
        "16x16": "https://www.gravatar.com/avatar/edfaea4e309481d141ca01d1119a04b7?d=mm&s=16",
        "32x32": "https://www.gravatar.com/avatar/edfaea4e309481d141ca01d1119a04b7?d=mm&s=32"
      },
      "displayName": "kernel-qe-hw kernel-qe-hw",
      "active": true,
      "timeZone": "GMT"
    },
    "versions": [
      {
        "self": "https://issues.redhat.com/rest/api/2/version/12392169",
        "id": "12392169",
        "description": "PPSync [release:1983]",
        "name": "rhel-8.6.0.z",
        "archived": false,
        "released": true
      }
    ],
    "issuelinks": [
      {
        "id": "15903186",
        "self": "https://issues.redhat.com/rest/api/2/issueLink/15903186",
        "type": {
          "id": "12311220",
          "name": "Depend",
          "inward": "is depended on by",
          "outward": "depends on",
          "self": "https://issues.redhat.com/rest/api/2/issueLinkType/12311220"
        },
        "inwardIssue": {
          "id": "16144147",
          "key": "RHEL-48708",
          "self": "https://issues.redhat.com/rest/api/2/issue/16144147",
          "fields": {
            "summary": "CVE-2023-28746 kernel-rt: kernel: Local information disclosure on Intel(R) Atom(R) processors [rhel-8.6.0.z]",
            "status": {
              "self": "https://issues.redhat.com/rest/api/2/status/13521",
              "description": "Collaborative work to understand what needs to be done, and confirm understanding with stakeholders.",
              "iconUrl": "https://issues.redhat.com/",
              "name": "Planning",
              "id": "13521",
              "statusCategory": {
                "self": "https://issues.redhat.com/rest/api/2/statuscategory/2",
                "id": 2,
                "key": "new",
                "colorName": "default",
                "name": "To Do"
              }
            },
            "priority": {
              "self": "https://issues.redhat.com/rest/api/2/priority/10200",
              "iconUrl": "https://issues.redhat.com/images/icons/priorities/medium.svg",
              "name": "Normal",
              "id": "10200"
            },
            "issuetype": {
              "self": "https://issues.redhat.com/rest/api/2/issuetype/1",
              "id": "1",
              "description": "A problem that impairs or prevents the functions of the product.",
              "iconUrl": "https://issues.redhat.com/secure/viewavatar?size=xsmall&avatarId=13263&avatarType=issuetype",
              "name": "Bug",
              "subtask": false,
              "avatarId": 13263
            }
          }
        }
      }
    ],
    "customfield_12319743": null,
    "assignee": {
      "self": "https://issues.redhat.com/rest/api/2/user?username=kernel-mgr",
      "name": "kernel-mgr",
      "key": "kernel-mgr",
      "emailAddress": "kernel-mgr@redhat.com",
      "avatarUrls": {
        "48x48": "https://www.gravatar.com/avatar/c8dff0def69aadbb46f9e19222f77075?d=mm&s=48",
        "24x24": "https://www.gravatar.com/avatar/c8dff0def69aadbb46f9e19222f77075?d=mm&s=24",
        "16x16": "https://www.gravatar.com/avatar/c8dff0def69aadbb46f9e19222f77075?d=mm&s=16",
        "32x32": "https://www.gravatar.com/avatar/c8dff0def69aadbb46f9e19222f77075?d=mm&s=32"
      },
      "displayName": "kernel-mgr",
      "active": true,
      "timeZone": "GMT"
    },
    "updated": "2024-07-19T15:25:16.000+0000",
    "status": {
      "self": "https://issues.redhat.com/rest/api/2/status/13521",
      "description": "Collaborative work to understand what needs to be done, and confirm understanding with stakeholders.",
      "iconUrl": "https://issues.redhat.com/",
      "name": "Planning",
      "id": "13521",
      "statusCategory": {
        "self": "https://issues.redhat.com/rest/api/2/statuscategory/2",
        "id": 2,
        "key": "new",
        "colorName": "default",
        "name": "To Do"
      }
    }
  }
}
