{
  "expand": "operations,versionedRepresentations,editmeta,changelog,renderedFields",
  "id": "16141030",
  "self": "https://issues.redhat.com/rest/api/2/issue/16141030",
  "key": "RHEL-47892",
  "fields": {
    "issuetype": {
      "self": "https://issues.redhat.com/rest/api/2/issuetype/1",
      "id": "1",
      "description": "A problem that impairs or prevents the functions of the product.",
      "iconUrl": "https://issues.redhat.com/secure/viewavatar?size=xsmall&avatarId=13263&avatarType=issuetype",
      "name": "Bug",
      "subtask": false,
      "avatarId": 13263
    },
    "customfield_12318141": {
      "self": "https://issues.redhat.com/rest/api/2/customFieldOption/16988",
      "value": "23",
      "id": "16988",
      "disabled": false
    },
    "customfield_12322640": null,
    "components": [
      {
        "self": "https://issues.redhat.com/rest/api/2/component/12369823",
        "id": "12369823",
        "name": "kernel / Desktop / USB",
        "description": " USB"
      }
    ],
    "customfield_12316142": null,
    "project": {
      "self": "https://issues.redhat.com/rest/api/2/project/12332745",
      "id": "12332745",
      "key": "RHEL",
      "name": "RHEL",
      "projectTypeKey": "software",
      "avatarUrls": {
        "48x48": "https://issues.redhat.com/secure/projectavatar?pid=12332745&avatarId=17271",
        "24x24": "https://issues.redhat.com/secure/projectavatar?size=small&pid=12332745&avatarId=17271",
        "16x16": "https://issues.redhat.com/secure/projectavatar?size=xsmall&pid=12332745&avatarId=17271",
        "32x32": "https://issues.redhat.com/secure/projectavatar?size=medium&pid=12332745&avatarId=17271"
      },
      "projectCategory": {
        "self": "https://issues.redhat.com/rest/api/2/projectCategory/10630",
        "id": "10630",
        "description": "These are projects which will be migrated to Red hat Jira (issues.redhat.com)",
        "name": "Product Development-RHEL"
      }
    },
    "fixVersions": [
      {
        "self": "https://issues.redhat.com/rest/api/2/version/12414808",
        "id": "12414808",
        "description": "PPSync [release:2566]",
        "name": "rhel-9.5",
        "archived": false,
        "released": false
      }
    ],
    "resolution": null,
    "customfield_12324041": "5ceac4402f5d",
    "customfield_12317259": [
      {
        "self": "https://issues.redhat.com/rest/api/2/customFieldOption/15200",
        "value": "sst_arch_hw",
        "id": "15200",
        "disabled": false
      }
    ],
    "summary": "CVE-2024-40927 kernel: xhci: Handle TD clearing for multiple streams case [rhel-9.5]",
    "customfield_12321540": {
      "self": "https://issues.redhat.com/rest/api/2/customFieldOption/34174",
      "value": "Pass",
      "id": "34174",
      "disabled": false
    },
    "customfield_12321040": {
      "self": "https://issues.redhat.com/rest/api/2/customFieldOption/27974",
      "value": "25",
      "id": "27974",
      "disabled": false
    },
    "subtasks": [],
    "customfield_12323341": null,
    "customfield_12315141": {
      "self": "https://issues.redhat.com/rest/api/2/user?username=rh-ee-desnesn",
      "name": "rh-ee-desnesn",
      "key": "drosario",
      "emailAddress": "desnesn@redhat.com",
      "avatarUrls": {
        "48x48": "https://issues.redhat.com/secure/useravatar?ownerId=drosario&avatarId=41740",
        "24x24": "https://issues.redhat.com/secure/useravatar?size=small&ownerId=drosario&avatarId=41740",
        "16x16": "https://issues.redhat.com/secure/useravatar?size=xsmall&ownerId=drosario&avatarId=41740",
        "32x32": "https://issues.redhat.com/secure/useravatar?size=medium&ownerId=drosario&avatarId=41740"
      },
      "displayName": "Desnes Nunes",
      "active": true,
      "timeZone": "America/Sao_Paulo"
    },
    "reporter": {
      "self": "https://issues.redhat.com/rest/api/2/user?username=mcascell%40redhat.com",
      "name": "mcascell@redhat.com",
      "key": "mcascell",
      "emailAddress": "mcascell@redhat.com",
      "avatarUrls": {
        "48x48": "https://issues.redhat.com/secure/useravatar?avatarId=17284",
        "24x24": "https://issues.redhat.com/secure/useravatar?size=small&avatarId=17284",
        "16x16": "https://issues.redhat.com/secure/useravatar?size=xsmall&avatarId=17284",
        "32x32": "https://issues.redhat.com/secure/useravatar?size=medium&avatarId=17284"
      },
      "displayName": "Mauro Matteo Cascella",
      "active": true,
      "timeZone": "Europe/Rome"
    },
    "priority": {
      "self": "https://issues.redhat.com/rest/api/2/priority/10200",
      "iconUrl": "https://issues.redhat.com/images/icons/priorities/medium.svg",
      "name": "Normal",
      "id": "10200"
    },
    "customfield_12321740": null,
    "labels": [
      "CVE-2024-40927",
      "Security",
      "SecurityTracking",
      "flaw:bz#2297511",
      "kwf-backport-success",
      "pscomponent:kernel"
    ],
    "customfield_12315948": {
      "self": "https://issues.redhat.com/rest/api/2/user?username=ftjahjad",
      "name": "ftjahjad",
      "key": "ftjahjad",
      "emailAddress": "ftjahjad@redhat.com",
      "avatarUrls": {
        "48x48": "https://www.gravatar.com/avatar/cf8ae829708aedf09537c9c6ad683af2?d=mm&s=48",
        "24x24": "https://www.gravatar.com/avatar/cf8ae829708aedf09537c9c6ad683af2?d=mm&s=24",
        "16x16": "https://www.gravatar.com/avatar/cf8ae829708aedf09537c9c6ad683af2?d=mm&s=16",
        "32x32": "https://www.gravatar.com/avatar/cf8ae829708aedf09537c9c6ad683af2?d=mm&s=32"
      },
      "displayName": "Fendy Tjahjadi",
      "active": true,
      "timeZone": "America/New_York"
    },
    "versions": [
      {
        "self": "https://issues.redhat.com/rest/api/2/version/12414808",
        "id": "12414808",
        "description": "PPSync [release:2566]",
        "name": "rhel-9.5",
        "archived": false,
        "released": false
      }
    ],
    "issuelinks": [
      {
        "id": "15896340",
        "self": "https://issues.redhat.com/rest/api/2/issueLink/15896340",
        "type": {
          "id": "12311220",
          "name": "Depend",
          "inward": "is depended on by",
          "outward": "depends on",
          "self": "https://issues.redhat.com/rest/api/2/issueLinkType/12311220"
        },
        "inwardIssue": {
          "id": "16141031",
          "key": "RHEL-47893",
          "self": "https://issues.redhat.com/rest/api/2/issue/16141031",
          "fields": {
            "summary": "CVE-2024-40927 kernel-rt: kernel: xhci: Handle TD clearing for multiple streams case [rhel-9.5]",
            "status": {
              "self": "https://issues.redhat.com/rest/api/2/status/15735",
              "description": "Work is complete but still not deployed or released to customers",
              "iconUrl": "https://issues.redhat.com/images/icons/statuses/generic.png",
              "name": "Release Pending",
              "id": "15735",
              "statusCategory": {
                "self": "https://issues.redhat.com/rest/api/2/statuscategory/3",
                "id": 3,
                "key": "done",
                "colorName": "success",
                "name": "Done"
              }
            },
            "priority": {
              "self": "https://issues.redhat.com/rest/api/2/priority/10200",
              "iconUrl": "https://issues.redhat.com/images/icons/priorities/medium.svg",
              "name": "Normal",
              "id": "10200"
            },
            "issuetype": {
              "self": "https://issues.redhat.com/rest/api/2/issuetype/1",
              "id": "1",
              "description": "A problem that impairs or prevents the functions of the product.",
              "iconUrl": "https://issues.redhat.com/secure/viewavatar?size=xsmall&avatarId=13263&avatarType=issuetype",
              "name": "Bug",
              "subtask": false,
              "avatarId": 13263
            }
          }
        }
      }
    ],
    "customfield_12319743": {
      "self": "https://issues.redhat.com/rest/api/2/customFieldOption/34567",
      "value": "Approved Blocker",
      "id": "34567",
      "disabled": false
    },
    "assignee": {
      "self": "https://issues.redhat.com/rest/api/2/user?username=rh-ee-desnesn",
      "name": "rh-ee-desnesn",
      "key": "drosario",
      "emailAddress": "desnesn@redhat.com",
      "avatarUrls": {
        "48x48": "https://issues.redhat.com/secure/useravatar?ownerId=drosario&avatarId=41740",
        "24x24": "https://issues.redhat.com/secure/useravatar?size=small&ownerId=drosario&avatarId=41740",
        "16x16": "https://issues.redhat.com/secure/useravatar?size=xsmall&ownerId=drosario&avatarId=41740",
        "32x32": "https://issues.redhat.com/secure/useravatar?size=medium&ownerId=drosario&avatarId=41740"
      },
      "displayName": "Desnes Nunes",
      "active": true,
      "timeZone": "America/Sao_Paulo"
    },
    "updated": "2024-08-12T15:57:14.000+0000",
    "status": {
      "self": "https://issues.redhat.com/rest/api/2/status/15735",
      "description": "Work is complete but still not deployed or released to customers",
      "iconUrl": "https://issues.redhat.com/images/icons/statuses/generic.png",
      "name": "Release Pending",
      "id": "15735",
      "statusCategory": {
        "self": "https://issues.redhat.com/rest/api/2/statuscategory/3",
        "id": 3,
        "key": "done",
        "colorName": "success",
        "name": "Done"
      }
    }
  }
}
